Massenspektrometer/TEK00019.CSV

Model,TBS2102B
Firmware Version,v1.32.139

Point Format,Y,
Horizontal Units,S,
Horizontal Scale,1,
Sample Interval,0.008,
Filter Frequency,2e+08,
Record Length,2000,
Gating,0.0% to 100.0%,0.0% to 100.0%
Probe Attenuation,1,1
Vertical Units,V,V
Vertical Offset,0,0
Vertical Scale,10,1
Label,,
TIME,CH1,CH2
-8.000e+00,8,-0.38
-7.992e+00,8,-0.3
-7.984e+00,8,-0.42
-7.976e+00,8,-0.54
-7.968e+00,8,-0.46
-7.960e+00,8.4,-0.26
-7.952e+00,8,-0.38
-7.944e+00,8.4,-0.5
-7.936e+00,8.4,-0.38
-7.928e+00,8.4,-0.22
-7.920e+00,8,-0.26
-7.912e+00,8.4,-0.38
-7.904e+00,8.4,-0.3
-7.896e+00,8.4,-0.14
-7.888e+00,8.4,-0.18
-7.880e+00,8,-0.34
-7.872e+00,8.4,-0.34
-7.864e+00,8.4,-0.26
-7.856e+00,8.4,-0.18
-7.848e+00,8.4,-0.3
-7.840e+00,8.4,-0.42
-7.832e+00,8.4,-0.34
-7.824e+00,8.8,-0.26
-7.816e+00,8.8,-0.46
-7.808e+00,8.4,-0.5
-7.800e+00,8.4,-0.46
-7.792e+00,8.4,-0.42
-7.784e+00,8.4,-0.46
-7.776e+00,8.4,-0.58
-7.768e+00,8.4,-0.42
-7.760e+00,8.4,-0.18
-7.752e+00,8.4,-0.18
-7.744e+00,8.4,-0.26
-7.736e+00,8.8,-0.18
-7.728e+00,8.4,-0.02
-7.720e+00,8.8,0.02
-7.712e+00,8.8,-0.18
-7.704e+00,8.8,-0.3
-7.696e+00,8.8,-0.14
-7.688e+00,8.8,-0.14
-7.680e+00,8.8,-0.3
-7.672e+00,8.8,-0.46
-7.664e+00,8.8,-0.38
-7.656e+00,8.8,-0.18
-7.648e+00,8.8,-0.3
-7.640e+00,8.8,-0.46
-7.632e+00,8.8,-0.42
-7.624e+00,8.8,-0.38
-7.616e+00,8.8,-0.46
-7.608e+00,8.8,-0.58
-7.600e+00,8.8,-0.54
-7.592e+00,8.8,-0.42
-7.584e+00,8.8,-0.42
-7.576e+00,8.8,-0.54
-7.568e+00,8.8,-0.5
-7.560e+00,8.8,-0.38
-7.552e+00,9.2,-0.34
-7.544e+00,8.8,-0.42
-7.536e+00,8.8,-0.5
-7.528e+00,8.8,-0.34
-7.520e+00,8.8,-0.18
-7.512e+00,8.8,-0.3
-7.504e+00,9.2,-0.42
-7.496e+00,9.2,-0.34
-7.488e+00,9.2,-0.34
-7.480e+00,9.2,-0.42
-7.472e+00,9.2,-0.58
-7.464e+00,9.6,-0.5
-7.456e+00,9.2,-0.34
-7.448e+00,9.2,-0.38
-7.440e+00,9.2,-0.5
-7.432e+00,9.2,-0.46
-7.424e+00,9.2,-0.26
-7.416e+00,9.2,-0.3
-7.408e+00,9.6,-0.38
-7.400e+00,9.2,-0.42
-7.392e+00,9.2,-0.26
-7.384e+00,9.2,-0.14
-7.376e+00,9.2,-0.3
-7.368e+00,9.2,-0.38
-7.360e+00,9.2,-0.34
-7.352e+00,9.2,-0.22
-7.344e+00,9.6,-0.34
-7.336e+00,9.6,-0.5
-7.328e+00,9.2,-0.42
-7.320e+00,9.2,-0.3
-7.312e+00,9.6,-0.3
-7.304e+00,9.6,-0.46
-7.296e+00,9.2,-0.42
-7.288e+00,9.6,-0.34
-7.280e+00,9.6,-0.3
-7.272e+00,9.6,-0.42
-7.264e+00,9.6,-0.42
-7.256e+00,9.6,-0.3
-7.248e+00,9.6,-0.22
-7.240e+00,9.6,-0.34
-7.232e+00,9.6,-0.3
-7.224e+00,9.6,-0.14
-7.216e+00,9.6,-0.06
-7.208e+00,9.6,-0.26
-7.200e+00,9.6,-0.34
-7.192e+00,10,-0.26
-7.184e+00,9.6,-0.18
-7.176e+00,9.6,-0.3
-7.168e+00,9.6,-0.54
-7.160e+00,9.6,-0.54
-7.152e+00,9.6,-0.38
-7.144e+00,9.6,-0.46
-7.136e+00,10,-0.54
-7.128e+00,9.6,-0.54
-7.120e+00,10,-0.38
-7.112e+00,9.6,-0.34
-7.104e+00,9.6,-0.42
-7.096e+00,7.6,-2.38
-7.088e+00,-4.76837e-07,-0.26
-7.080e+00,-0.4,-0.18
-7.072e+00,-0.4,-0.3
-7.064e+00,-0.4,-0.34
-7.056e+00,-0.4,-0.14
-7.048e+00,-0.4,-0.02
-7.040e+00,-0.4,-0.14
-7.032e+00,-0.4,-0.26
-7.024e+00,-0.4,-0.22
-7.016e+00,-0.4,-0.02
-7.008e+00,-0.4,-0.06
-7.000e+00,-0.4,-0.22
-6.992e+00,-4.76837e-07,-0.1
-6.984e+00,-4.76837e-07,0.02
-6.976e+00,-0.4,-0.02
-6.968e+00,-4.76837e-07,-0.18
-6.960e+00,-4.76837e-07,-0.22
-6.952e+00,-4.76837e-07,-0.14
-6.944e+00,-4.76837e-07,-0.1
-6.936e+00,-4.76837e-07,-0.22
-6.928e+00,-4.76837e-07,-0.26
-6.920e+00,-4.76837e-07,-0.14
-6.912e+00,0.4,-0.06
-6.904e+00,0.4,-0.22
-6.896e+00,-4.76837e-07,-0.38
-6.888e+00,-4.76837e-07,-0.38
-6.880e+00,-4.76837e-07,-0.22
-6.872e+00,0.4,-0.26
-6.864e+00,-4.76837e-07,-0.38
-6.856e+00,-4.76837e-07,-0.3
-6.848e+00,-4.76837e-07,-0.14
-6.840e+00,-4.76837e-07,-0.22
-6.832e+00,-4.76837e-07,-0.38
-6.824e+00,-4.76837e-07,-0.42
-6.816e+00,-4.76837e-07,-0.34
-6.808e+00,-4.76837e-07,-0.3
-6.800e+00,0.4,-0.42
-6.792e+00,0.4,-0.42
-6.784e+00,0.4,-0.26
-6.776e+00,0.4,-0.18
-6.768e+00,0.4,-0.3
-6.760e+00,0.4,-0.46
-6.752e+00,0.4,-0.38
-6.744e+00,0.4,-0.3
-6.736e+00,0.4,-0.42
-6.728e+00,0.4,-0.58
-6.720e+00,0.8,-0.5
-6.712e+00,0.4,-0.34
-6.704e+00,0.4,-0.34
-6.696e+00,0.8,-0.46
-6.688e+00,0.4,-0.38
-6.680e+00,0.4,-0.14
-6.672e+00,0.4,-0.18
-6.664e+00,0.4,-0.3
-6.656e+00,0.4,-0.3
-6.648e+00,0.4,-0.22
-6.640e+00,0.8,-0.18
-6.632e+00,0.4,-0.3
-6.624e+00,0.4,-0.38
-6.616e+00,0.4,-0.26
-6.608e+00,0.4,-0.18
-6.600e+00,0.4,-0.3
-6.592e+00,0.8,-0.38
-6.584e+00,0.8,-0.3
-6.576e+00,0.4,-0.22
-6.568e+00,0.8,-0.26
-6.560e+00,0.8,-0.46
-6.552e+00,0.8,-0.38
-6.544e+00,0.8,-0.18
-6.536e+00,0.8,-0.22
-6.528e+00,0.8,-0.42
-6.520e+00,0.8,-0.38
-6.512e+00,0.8,-0.22
-6.504e+00,0.8,-0.22
-6.496e+00,0.8,-0.34
-6.488e+00,0.8,-0.34
-6.480e+00,0.8,-0.22
-6.472e+00,0.8,-0.14
-6.464e+00,0.8,-0.3
-6.456e+00,0.8,-0.46
-6.448e+00,0.8,-0.38
-6.440e+00,0.8,-0.26
-6.432e+00,1.2,-0.34
-6.424e+00,0.8,-0.5
-6.416e+00,0.8,-0.42
-6.408e+00,0.8,-0.38
-6.400e+00,1.2,-0.5
-6.392e+00,1.2,-0.66
-6.384e+00,1.2,-0.54
-6.376e+00,1.2,-0.42
-6.368e+00,1.2,-0.42
-6.360e+00,1.2,-0.58
-6.352e+00,1.2,-0.5
-6.344e+00,1.2,-0.38
-6.336e+00,1.2,-0.3
-6.328e+00,1.2,-0.38
-6.320e+00,1.2,-0.38
-6.312e+00,1.6,-0.34
-6.304e+00,1.2,-0.26
-6.296e+00,1.6,-0.42
-6.288e+00,1.2,-0.58
-6.280e+00,1.2,-0.42
-6.272e+00,1.2,-0.3
-6.264e+00,1.2,-0.34
-6.256e+00,1.2,-0.46
-6.248e+00,1.2,-0.46
-6.240e+00,1.2,-0.34
-6.232e+00,1.2,-0.38
-6.224e+00,1.2,-0.54
-6.216e+00,1.2,-0.5
-6.208e+00,1.6,-0.3
-6.200e+00,1.6,-0.3
-6.192e+00,1.6,-0.34
-6.184e+00,1.6,-0.3
-6.176e+00,1.6,-0.14
-6.168e+00,1.6,-0.06
-6.160e+00,1.6,-0.18
-6.152e+00,1.6,-0.3
-6.144e+00,1.6,-0.26
-6.136e+00,1.6,-0.18
-6.128e+00,1.6,-0.34
-6.120e+00,1.6,-0.42
-6.112e+00,2,-0.42
-6.104e+00,1.6,-0.26
-6.096e+00,2,-0.34
-6.088e+00,1.6,-0.54
-6.080e+00,1.6,-0.5
-6.072e+00,1.6,-0.38
-6.064e+00,1.6,-0.46
-6.056e+00,1.6,-0.62
-6.048e+00,1.6,-0.66
-6.040e+00,2,-0.46
-6.032e+00,2,-0.38
-6.024e+00,1.6,-0.54
-6.016e+00,2,-0.54
-6.008e+00,2,-0.38
-6.000e+00,2,-0.3
-5.992e+00,1.6,-0.34
-5.984e+00,2,-0.38
-5.976e+00,1.6,-0.3
-5.968e+00,2,-0.06
-5.960e+00,2,-0.14
-5.952e+00,2,-0.26
-5.944e+00,2,-0.3
-5.936e+00,2,-0.14
-5.928e+00,2,-0.22
-5.920e+00,2,-0.38
-5.912e+00,2,-0.38
-5.904e+00,2.4,-0.26
-5.896e+00,2,-0.34
-5.888e+00,2.4,-0.5
-5.880e+00,2,-0.5
-5.872e+00,2,-0.46
-5.864e+00,2,-0.42
-5.856e+00,2,-0.5
-5.848e+00,2,-0.54
-5.840e+00,2.4,-0.42
-5.832e+00,2,-0.3
-5.824e+00,2,-0.38
-5.816e+00,2,-0.46
-5.808e+00,2,-0.3
-5.800e+00,2.4,-0.14
-5.792e+00,2,-0.14
-5.784e+00,2,-0.38
-5.776e+00,2.4,-0.34
-5.768e+00,2,-0.18
-5.760e+00,2.4,-0.22
-5.752e+00,2.4,-0.42
-5.744e+00,2.4,-0.46
-5.736e+00,2.4,-0.34
-5.728e+00,2.4,-0.3
-5.720e+00,2.4,-0.42
-5.712e+00,2.4,-0.46
-5.704e+00,2.8,-0.3
-5.696e+00,2.4,-0.22
-5.688e+00,2.4,-0.34
-5.680e+00,2.4,-0.42
-5.672e+00,2.4,-0.34
-5.664e+00,2.4,-0.3
-5.656e+00,2.4,-0.38
-5.648e+00,2.4,-0.5
-5.640e+00,2.8,-0.38
-5.632e+00,2.4,-0.18
-5.624e+00,2.4,-0.26
-5.616e+00,2.4,-0.46
-5.608e+00,2.4,-0.42
-5.600e+00,2.4,-0.22
-5.592e+00,2.8,-0.22
-5.584e+00,2.8,-0.42
-5.576e+00,2.8,-0.42
-5.568e+00,2.8,-0.26
-5.560e+00,2.8,-0.26
-5.552e+00,2.8,-0.34
-5.544e+00,3.2,-0.38
-5.536e+00,2.8,-0.3
-5.528e+00,2.8,-0.22
-5.520e+00,2.8,-0.3
-5.512e+00,2.8,-0.38
-5.504e+00,2.8,-0.22
-5.496e+00,2.8,-0.1
-5.488e+00,2.8,-0.18
-5.480e+00,2.8,-0.38
-5.472e+00,2.8,-0.38
-5.464e+00,2.8,-0.22
-5.456e+00,2.8,-0.14
-5.448e+00,2.8,-0.34
-5.440e+00,2.8,-0.34
-5.432e+00,2.8,-0.22
-5.424e+00,2.8,-0.22
-5.416e+00,2.8,-0.3
-5.408e+00,3.2,-0.34
-5.400e+00,3.2,-0.22
-5.392e+00,2.8,-0.14
-5.384e+00,2.8,-0.26
-5.376e+00,2.8,-0.42
-5.368e+00,3.2,-0.34
-5.360e+00,3.2,-0.26
-5.352e+00,3.2,-0.34
-5.344e+00,3.2,-0.5
-5.336e+00,3.2,-0.42
-5.328e+00,3.2,-0.26
-5.320e+00,3.2,-0.3
-5.312e+00,3.2,-0.5
-5.304e+00,3.2,-0.5
-5.296e+00,3.6,-0.34
-5.288e+00,3.2,-0.38
-5.280e+00,3.2,-0.5
-5.272e+00,3.2,-0.54
-5.264e+00,3.2,-0.42
-5.256e+00,3.2,-0.34
-5.248e+00,3.2,-0.5
-5.240e+00,3.2,-0.54
-5.232e+00,3.2,-0.38
-5.224e+00,3.2,-0.3
-5.216e+00,3.6,-0.38
-5.208e+00,3.2,-0.42
-5.200e+00,3.2,-0.34
-5.192e+00,3.6,-0.18
-5.184e+00,3.2,-0.26
-5.176e+00,3.2,-0.34
-5.168e+00,3.6,-0.34
-5.160e+00,3.6,-0.18
-5.152e+00,3.6,-0.26
-5.144e+00,3.6,-0.46
-5.136e+00,3.6,-0.5
-5.128e+00,4,-0.34
-5.120e+00,3.6,-0.34
-5.112e+00,3.6,-0.5
-5.104e+00,3.6,-0.54
-5.096e+00,3.6,-0.42
-5.088e+00,3.6,-0.34
-5.080e+00,3.6,-0.34
-5.072e+00,3.6,-0.42
-5.064e+00,3.6,-0.3
-5.056e+00,3.6,-0.14
-5.048e+00,3.6,-0.18
-5.040e+00,4,-0.3
-5.032e+00,3.6,-0.22
-5.024e+00,4,-0.18
-5.016e+00,4,-0.22
-5.008e+00,3.6,-0.38
-5.000e+00,4,-0.38
-4.992e+00,4,-0.26
-4.984e+00,4,-0.3
-4.976e+00,4,-0.5
-4.968e+00,4.4,-0.54
-4.960e+00,4,-0.46
-4.952e+00,4.4,-0.38
-4.944e+00,4,-0.5
-4.936e+00,4,-0.62
-4.928e+00,4.4,-0.42
-4.920e+00,4,-0.3
-4.912e+00,4,-0.38
-4.904e+00,4,-0.42
-4.896e+00,4,-0.34
-4.888e+00,4,-0.18
-4.880e+00,4,-0.22
-4.872e+00,4,-0.42
-4.864e+00,4,-0.42
-4.856e+00,4,-0.14
-4.848e+00,4,-0.1
-4.840e+00,4,-0.26
-4.832e+00,4,-0.3
-4.824e+00,4.4,-0.22
-4.816e+00,4,-0.26
-4.808e+00,4.4,-0.38
-4.800e+00,4.4,-0.42
-4.792e+00,4,-0.3
-4.784e+00,4.4,-0.3
-4.776e+00,4,-0.46
-4.768e+00,4,-0.46
-4.760e+00,4.4,-0.42
-4.752e+00,4.4,-0.3
-4.744e+00,4.4,-0.42
-4.736e+00,4.4,-0.58
-4.728e+00,4.4,-0.46
-4.720e+00,4.4,-0.34
-4.712e+00,4.4,-0.38
-4.704e+00,4.4,-0.54
-4.696e+00,4.4,-0.54
-4.688e+00,4.4,-0.3
-4.680e+00,4.8,-0.26
-4.672e+00,4.4,-0.46
-4.664e+00,4.4,-0.5
-4.656e+00,4.4,-0.34
-4.648e+00,4.4,-0.3
-4.640e+00,4.4,-0.46
-4.632e+00,4.4,-0.46
-4.624e+00,4.4,-0.34
-4.616e+00,4.4,-0.22
-4.608e+00,4.4,-0.38
-4.600e+00,4.8,-0.46
-4.592e+00,4.4,-0.38
-4.584e+00,4.4,-0.3
-4.576e+00,4.8,-0.38
-4.568e+00,4.8,-0.5
-4.560e+00,4.4,-0.46
-4.552e+00,4.8,-0.3
-4.544e+00,4.8,-0.26
-4.536e+00,4.8,-0.46
-4.528e+00,4.8,-0.34
-4.520e+00,4.8,-0.14
-4.512e+00,4.8,-0.1
-4.504e+00,4.8,-0.3
-4.496e+00,4.8,-0.3
-4.488e+00,4.8,-0.14
-4.480e+00,4.8,-0.14
-4.472e+00,4.8,-0.34
-4.464e+00,4.8,-0.38
-4.456e+00,4.8,-0.26
-4.448e+00,4.8,-0.26
-4.440e+00,4.8,-0.34
-4.432e+00,4.8,-0.5
-4.424e+00,4.8,-0.42
-4.416e+00,4.8,-0.3
-4.408e+00,5.2,-0.34
-4.400e+00,5.2,-0.54
-4.392e+00,4.8,-0.54
-4.384e+00,4.8,-0.42
-4.376e+00,5.2,-0.34
-4.368e+00,5.2,-0.42
-4.360e+00,5.2,-0.38
-4.352e+00,5.2,-0.18
-4.344e+00,5.2,-0.1
-4.336e+00,5.2,-0.3
-4.328e+00,5.2,-0.38
-4.320e+00,5.2,-0.3
-4.312e+00,5.6,-0.22
-4.304e+00,5.2,-0.34
-4.296e+00,5.2,-0.54
-4.288e+00,5.2,-0.42
-4.280e+00,5.2,-0.34
-4.272e+00,5.2,-0.46
-4.264e+00,5.2,-0.58
-4.256e+00,5.2,-0.46
-4.248e+00,5.2,-0.3
-4.240e+00,5.2,-0.3
-4.232e+00,5.6,-0.42
-4.224e+00,5.2,-0.34
-4.216e+00,5.2,-0.1
-4.208e+00,5.2,-0.02
-4.200e+00,5.6,-0.18
-4.192e+00,5.2,-0.18
-4.184e+00,5.6,-0.06
-4.176e+00,5.2,0.06
-4.168e+00,5.2,-0.06
-4.160e+00,5.6,-0.18
-4.152e+00,5.6,-0.1
-4.144e+00,5.6,-0.02
-4.136e+00,5.6,-0.14
-4.128e+00,5.6,-0.3
-4.120e+00,6,-0.26
-4.112e+00,5.6,-0.26
-4.104e+00,5.6,-0.26
-4.096e+00,5.6,-0.42
-4.088e+00,5.6,-0.34
-4.080e+00,5.6,-0.14
-4.072e+00,5.6,-0.14
-4.064e+00,5.6,-0.26
-4.056e+00,6,-0.38
-4.048e+00,5.6,-0.26
-4.040e+00,5.6,-0.26
-4.032e+00,5.6,-0.42
-4.024e+00,6,-0.54
-4.016e+00,5.6,-0.34
-4.008e+00,6,-0.26
-4.000e+00,5.6,-0.38
-3.992e+00,6,-0.38
-3.984e+00,6,-0.26
-3.976e+00,5.6,-0.18
-3.968e+00,6,-0.18
-3.960e+00,6,-0.38
-3.952e+00,6,-0.34
-3.944e+00,6,-0.18
-3.936e+00,6,-0.26
-3.928e+00,6,-0.42
-3.920e+00,6,-0.38
-3.912e+00,6,-0.26
-3.904e+00,6,-0.26
-3.896e+00,6,-0.5
-3.888e+00,6,-0.54
-3.880e+00,6,-0.38
-3.872e+00,6.4,-0.3
-3.864e+00,6,-0.42
-3.856e+00,6,-0.5
-3.848e+00,6,-0.42
-3.840e+00,6,-0.3
-3.832e+00,6.4,-0.38
-3.824e+00,6,-0.46
-3.816e+00,6,-0.42
-3.808e+00,6,-0.34
-3.800e+00,6.4,-0.38
-3.792e+00,6,-0.46
-3.784e+00,6.4,-0.46
-3.776e+00,6,-0.34
-3.768e+00,6.4,-0.26
-3.760e+00,6.4,-0.38
-3.752e+00,6.4,-0.34
-3.744e+00,6.4,-0.1
-3.736e+00,6.4,-0.06
-3.728e+00,6.4,-0.26
-3.720e+00,6.4,-0.42
-3.712e+00,6.4,-0.26
-3.704e+00,6.4,-0.22
-3.696e+00,6.4,-0.34
-3.688e+00,6.4,-0.46
-3.680e+00,6.8,-0.26
-3.672e+00,6.4,-0.14
-3.664e+00,6.4,-0.14
-3.656e+00,6.4,-0.26
-3.648e+00,6.4,-0.26
-3.640e+00,6.4,-0.18
-3.632e+00,6.4,-0.22
-3.624e+00,6.4,-0.38
-3.616e+00,6.4,-0.38
-3.608e+00,6.4,-0.3
-3.600e+00,6.8,-0.26
-3.592e+00,6.4,-0.38
-3.584e+00,6.4,-0.46
-3.576e+00,6.8,-0.22
-3.568e+00,6.8,-0.1
-3.560e+00,6.8,-0.26
-3.552e+00,6.8,-0.26
-3.544e+00,6.8,-0.1
-3.536e+00,6.8,-0.02
-3.528e+00,6.8,-0.14
-3.520e+00,6.8,-0.3
-3.512e+00,6.8,-0.18
-3.504e+00,6.8,-0.06
-3.496e+00,6.8,-0.14
-3.488e+00,6.8,-0.34
-3.480e+00,6.8,-0.38
-3.472e+00,6.8,-0.3
-3.464e+00,6.8,-0.3
-3.456e+00,7.2,-0.38
-3.448e+00,6.8,-0.5
-3.440e+00,6.8,-0.42
-3.432e+00,6.8,-0.38
-3.424e+00,7.2,-0.54
-3.416e+00,7.2,-0.54
-3.408e+00,6.8,-0.38
-3.400e+00,7.2,-0.3
-3.392e+00,7.2,-0.42
-3.384e+00,7.2,-0.54
-3.376e+00,6.8,-0.42
-3.368e+00,7.2,-0.34
-3.360e+00,7.2,-0.46
-3.352e+00,7.2,-0.5
-3.344e+00,7.2,-0.42
-3.336e+00,7.2,-0.26
-3.328e+00,7.2,-0.3
-3.320e+00,7.2,-0.42
-3.312e+00,7.2,-0.42
-3.304e+00,7.2,-0.3
-3.296e+00,7.2,-0.34
-3.288e+00,7.6,-0.5
-3.280e+00,7.2,-0.58
-3.272e+00,7.2,-0.46
-3.264e+00,7.2,-0.38
-3.256e+00,7.2,-0.5
-3.248e+00,7.2,-0.62
-3.240e+00,7.2,-0.42
-3.232e+00,7.6,-0.34
-3.224e+00,7.2,-0.38
-3.216e+00,7.2,-0.46
-3.208e+00,7.2,-0.34
-3.200e+00,7.6,-0.22
-3.192e+00,7.6,-0.3
-3.184e+00,7.2,-0.42
-3.176e+00,7.6,-0.38
-3.168e+00,7.6,-0.3
-3.160e+00,7.2,-0.34
-3.152e+00,7.6,-0.46
-3.144e+00,7.6,-0.46
-3.136e+00,7.6,-0.38
-3.128e+00,7.6,-0.22
-3.120e+00,7.6,-0.38
-3.112e+00,7.6,-0.42
-3.104e+00,7.6,-0.26
-3.096e+00,7.6,-0.18
-3.088e+00,7.6,-0.34
-3.080e+00,7.6,-0.5
-3.072e+00,7.6,-0.34
-3.064e+00,7.6,-0.26
-3.056e+00,7.6,-0.34
-3.048e+00,8,-0.5
-3.040e+00,7.6,-0.38
-3.032e+00,7.6,-0.22
-3.024e+00,7.6,-0.22
-3.016e+00,7.6,-0.26
-3.008e+00,7.6,-0.22
-3.000e+00,8,-0.1
-2.992e+00,8,-0.06
-2.984e+00,8,-0.26
-2.976e+00,8,-0.34
-2.968e+00,8,-0.18
-2.960e+00,8,-0.1
-2.952e+00,8,-0.26
-2.944e+00,8,-0.34
-2.936e+00,8,-0.22
-2.928e+00,8,-0.1
-2.920e+00,8,-0.22
-2.912e+00,8,-0.38
-2.904e+00,8,-0.22
-2.896e+00,8,-0.1
-2.888e+00,8,-0.18
-2.880e+00,8,-0.34
-2.872e+00,8,-0.34
-2.864e+00,8,-0.26
-2.856e+00,8,-0.34
-2.848e+00,8,-0.46
-2.840e+00,8,-0.42
-2.832e+00,8,-0.3
-2.824e+00,8,-0.26
-2.816e+00,8.4,-0.38
-2.808e+00,8.4,-0.46
-2.800e+00,8.4,-0.3
-2.792e+00,8.4,-0.18
-2.784e+00,8.4,-0.38
-2.776e+00,8.4,-0.58
-2.768e+00,8.4,-0.42
-2.760e+00,8.4,-0.34
-2.752e+00,8.4,-0.42
-2.744e+00,8.4,-0.5
-2.736e+00,8.8,-0.42
-2.728e+00,8.4,-0.18
-2.720e+00,8.4,-0.22
-2.712e+00,8.8,-0.34
-2.704e+00,8.4,-0.3
-2.696e+00,8.4,-0.18
-2.688e+00,8.4,-0.18
-2.680e+00,8.4,-0.34
-2.672e+00,8.4,-0.42
-2.664e+00,8.4,-0.26
-2.656e+00,8.4,-0.26
-2.648e+00,8.4,-0.34
-2.640e+00,8.4,-0.42
-2.632e+00,8.8,-0.3
-2.624e+00,8.4,-0.26
-2.616e+00,8.4,-0.38
-2.608e+00,8.4,-0.62
-2.600e+00,8.8,-0.54
-2.592e+00,8.4,-0.38
-2.584e+00,8.8,-0.42
-2.576e+00,8.8,-0.5
-2.568e+00,8.8,-0.38
-2.560e+00,8.8,-0.3
-2.552e+00,8.4,-0.26
-2.544e+00,8.8,-0.34
-2.536e+00,8.8,-0.34
-2.528e+00,8.8,-0.18
-2.520e+00,8.8,-0.14
-2.512e+00,8.8,-0.3
-2.504e+00,8.8,-0.38
-2.496e+00,8.8,-0.26
-2.488e+00,8.8,-0.22
-2.480e+00,8.8,-0.42
-2.472e+00,8.8,-0.58
-2.464e+00,8.8,-0.46
-2.456e+00,8.8,-0.34
-2.448e+00,8.8,-0.38
-2.440e+00,8.8,-0.54
-2.432e+00,8.8,-0.5
-2.424e+00,8.8,-0.34
-2.416e+00,8.8,-0.34
-2.408e+00,8.8,-0.46
-2.400e+00,9.2,-0.38
-2.392e+00,9.2,-0.22
-2.384e+00,9.2,-0.22
-2.376e+00,9.2,-0.22
-2.368e+00,8.8,-0.22
-2.360e+00,9.2,-0.06
-2.352e+00,9.2,0.02
-2.344e+00,9.2,-0.18
-2.336e+00,9.2,-0.26
-2.328e+00,9.2,-0.14
-2.320e+00,9.2,-0.02
-2.312e+00,9.2,-0.14
-2.304e+00,9.2,-0.3
-2.296e+00,9.6,-0.26
-2.288e+00,9.6,-0.14
-2.280e+00,9.6,-0.22
-2.272e+00,9.2,-0.46
-2.264e+00,9.6,-0.46
-2.256e+00,9.2,-0.34
-2.248e+00,9.2,-0.38
-2.240e+00,9.2,-0.5
-2.232e+00,9.2,-0.46
-2.224e+00,9.2,-0.34
-2.216e+00,9.6,-0.26
-2.208e+00,9.6,-0.38
-2.200e+00,9.6,-0.38
-2.192e+00,9.2,-0.18
-2.184e+00,9.6,-0.1
-2.176e+00,9.2,-0.22
-2.168e+00,9.6,-0.3
-2.160e+00,9.6,-0.18
-2.152e+00,9.6,-0.1
-2.144e+00,9.6,-0.26
-2.136e+00,9.6,-0.5
-2.128e+00,9.6,-0.42
-2.120e+00,9.6,-0.34
-2.112e+00,9.6,-0.38
-2.104e+00,9.6,-0.5
-2.096e+00,9.6,-0.54
-2.088e+00,9.6,-0.38
-2.080e+00,10,-0.38
-2.072e+00,9.6,-0.46
-2.064e+00,9.6,-0.46
-2.056e+00,10,-0.34
-2.048e+00,9.6,-0.26
-2.040e+00,9.6,-0.34
-2.032e+00,9.6,-0.38
-2.024e+00,10,-0.26
-2.016e+00,9.6,-0.02
-2.008e+00,9.6,-0.14
-2.000e+00,9.6,-0.22
-1.992e+00,10,-0.1
-1.984e+00,10,-0.02
-1.976e+00,9.6,-0.1
-1.968e+00,10,-0.34
-1.960e+00,10,-0.34
-1.952e+00,1.2,-2.38
-1.944e+00,-0.4,-0.3
-1.936e+00,-0.4,-0.42
-1.928e+00,-0.4,-0.38
-1.920e+00,-4.76837e-07,-0.22
-1.912e+00,-0.4,-0.18
-1.904e+00,-0.4,-0.22
-1.896e+00,-0.4,-0.3
-1.888e+00,-0.4,-0.1
-1.880e+00,-4.76837e-07,-0.02
-1.872e+00,-4.76837e-07,-0.18
-1.864e+00,-4.76837e-07,-0.3
-1.856e+00,-0.4,-0.22
-1.848e+00,-4.76837e-07,-0.14
-1.840e+00,-4.76837e-07,-0.26
-1.832e+00,-4.76837e-07,-0.38
-1.824e+00,-4.76837e-07,-0.3
-1.816e+00,-4.76837e-07,-0.06
-1.808e+00,-4.76837e-07,-0.14
-1.800e+00,-4.76837e-07,-0.26
-1.792e+00,-4.76837e-07,-0.26
-1.784e+00,0.4,-0.14
-1.776e+00,-4.76837e-07,-0.14
-1.768e+00,-4.76837e-07,-0.3
-1.760e+00,0.4,-0.34
-1.752e+00,-4.76837e-07,-0.26
-1.744e+00,-4.76837e-07,-0.18
-1.736e+00,-4.76837e-07,-0.22
-1.728e+00,-4.76837e-07,-0.26
-1.720e+00,-4.76837e-07,-0.14
-1.712e+00,0.4,0.02
-1.704e+00,-4.76837e-07,-0.06
-1.696e+00,0.4,-0.18
-1.688e+00,0.4,-0.06
-1.680e+00,0.4,0.06
-1.672e+00,0.4,-0.06
-1.664e+00,0.4,-0.18
-1.656e+00,0.4,-0.18
-1.648e+00,0.4,-0.06
-1.640e+00,0.4,-0.1
-1.632e+00,0.4,-0.3
-1.624e+00,0.4,-0.34
-1.616e+00,0.4,-0.18
-1.608e+00,0.4,-0.22
-1.600e+00,0.4,-0.34
-1.592e+00,0.4,-0.42
-1.584e+00,0.4,-0.34
-1.576e+00,0.4,-0.3
-1.568e+00,0.4,-0.42
-1.560e+00,0.4,-0.54
-1.552e+00,0.4,-0.46
-1.544e+00,0.4,-0.38
-1.536e+00,0.4,-0.46
-1.528e+00,0.4,-0.58
-1.520e+00,0.4,-0.54
-1.512e+00,0.4,-0.34
-1.504e+00,0.8,-0.38
-1.496e+00,0.4,-0.46
-1.488e+00,0.8,-0.34
-1.480e+00,0.4,-0.18
-1.472e+00,0.4,-0.26
-1.464e+00,0.4,-0.34
-1.456e+00,0.4,-0.38
-1.448e+00,0.8,-0.18
-1.440e+00,0.8,-0.14
-1.432e+00,0.8,-0.26
-1.424e+00,0.8,-0.34
-1.416e+00,0.8,-0.26
-1.408e+00,0.8,-0.22
-1.400e+00,0.8,-0.34
-1.392e+00,0.8,-0.54
-1.384e+00,0.8,-0.46
-1.376e+00,0.8,-0.34
-1.368e+00,0.8,-0.42
-1.360e+00,0.8,-0.58
-1.352e+00,0.8,-0.54
-1.344e+00,0.8,-0.42
-1.336e+00,0.8,-0.5
-1.328e+00,0.8,-0.62
-1.320e+00,0.8,-0.58
-1.312e+00,0.8,-0.42
-1.304e+00,0.8,-0.38
-1.296e+00,1.2,-0.54
-1.288e+00,0.8,-0.54
-1.280e+00,0.8,-0.38
-1.272e+00,1.6,-0.3
-1.264e+00,1.2,-0.34
-1.256e+00,1.2,-0.38
-1.248e+00,1.2,-0.26
-1.240e+00,0.8,-0.22
-1.232e+00,1.2,-0.26
-1.224e+00,1.2,-0.46
-1.216e+00,1.2,-0.38
-1.208e+00,1.2,-0.22
-1.200e+00,1.2,-0.26
-1.192e+00,1.2,-0.38
-1.184e+00,1.2,-0.38
-1.176e+00,1.2,-0.18
-1.168e+00,1.6,-0.18
-1.160e+00,1.2,-0.3
-1.152e+00,1.2,-0.26
-1.144e+00,1.2,-0.1
-1.136e+00,1.2,-0.02
-1.128e+00,1.2,-0.14
-1.120e+00,1.2,-0.22
-1.112e+00,1.2,-0.1
-1.104e+00,1.2,-0.06
-1.096e+00,1.6,-0.22
-1.088e+00,1.6,-0.34
-1.080e+00,1.2,-0.3
-1.072e+00,1.6,-0.18
-1.064e+00,1.6,-0.22
-1.056e+00,1.6,-0.5
-1.048e+00,1.6,-0.46
-1.040e+00,1.6,-0.3
-1.032e+00,1.6,-0.34
-1.024e+00,1.2,-0.5
-1.016e+00,1.6,-0.46
-1.008e+00,1.6,-0.34
-1.000e+00,1.6,-0.3
-9.920e-01,1.6,-0.42
-9.840e-01,1.6,-0.42
-9.760e-01,1.6,-0.26
-9.680e-01,1.6,-0.18
-9.600e-01,1.6,-0.3
-9.520e-01,1.6,-0.3
-9.440e-01,1.6,-0.26
-9.360e-01,1.6,-0.22
-9.280e-01,1.6,-0.3
-9.200e-01,1.6,-0.46
-9.120e-01,1.6,-0.42
-9.040e-01,2,-0.3
-8.960e-01,1.6,-0.38
-8.880e-01,1.6,-0.62
-8.800e-01,1.6,-0.66
-8.720e-01,1.6,-0.5
-8.640e-01,1.6,-0.46
-8.560e-01,2.4,-0.58
-8.480e-01,2,-0.62
-8.400e-01,2,-0.38
-8.320e-01,2,-0.38
-8.240e-01,2,-0.42
-8.160e-01,2,-0.46
-8.080e-01,2,-0.34
-8.000e-01,2.4,-0.22
-7.920e-01,2,-0.34
-7.840e-01,2,-0.46
-7.760e-01,2,-0.38
-7.680e-01,2,-0.34
-7.600e-01,2,-0.38
-7.520e-01,2,-0.54
-7.440e-01,2,-0.5
-7.360e-01,2,-0.3
-7.280e-01,2,-0.26
-7.200e-01,2,-0.46
-7.120e-01,2,-0.5
-7.040e-01,2,-0.34
-6.960e-01,2,-0.3
-6.880e-01,2,-0.42
-6.800e-01,2.4,-0.42
-6.720e-01,2,-0.3
-6.640e-01,2.4,-0.26
-6.560e-01,2,-0.42
-6.480e-01,2.4,-0.42
-6.400e-01,2,-0.26
-6.320e-01,2.4,-0.14
-6.240e-01,2.4,-0.22
-6.160e-01,2.4,-0.34
-6.080e-01,2.4,-0.26
-6.000e-01,2.4,-0.06
-5.920e-01,2.8,-0.14
-5.840e-01,2.4,-0.34
-5.760e-01,2.4,-0.34
-5.680e-01,2.4,-0.22
-5.600e-01,2.8,-0.22
-5.520e-01,2.4,-0.38
-5.440e-01,2.4,-0.5
-5.360e-01,2.4,-0.34
-5.280e-01,2.4,-0.34
-5.200e-01,2.4,-0.38
-5.120e-01,2.4,-0.42
-5.040e-01,2.8,-0.26
-4.960e-01,2.4,-0.18
-4.880e-01,2.8,-0.3
-4.800e-01,2.4,-0.34
