Massenspektrometer/TEK00005.CSV

Model,TBS2102B
Firmware Version,v1.32.139

Point Format,Y,
Horizontal Units,S,
Horizontal Scale,0.4,
Sample Interval,0.0032,
Filter Frequency,2e+08,
Record Length,2000,
Gating,0.0% to 100.0%,0.0% to 100.0%
Probe Attenuation,1,1
Vertical Units,V,V
Vertical Offset,0,0
Vertical Scale,5,0.5
Label,,
TIME,CH1,CH2
-3.200e+00,2.4,-1.19
-3.197e+00,2.4,-1.19
-3.194e+00,2.4,-1.19
-3.190e+00,2.2,-1.19
-3.187e+00,2.2,-1.19
-3.184e+00,2.2,-1.19
-3.181e+00,2.2,-1.19
-3.178e+00,2,-1.19
-3.174e+00,2.2,-1.19
-3.171e+00,2,-1.19
-3.168e+00,2,-1.19
-3.165e+00,2,-1.19
-3.162e+00,2,-1.19
-3.158e+00,2,-1.19
-3.155e+00,2,-1.19
-3.152e+00,1.8,-1.19
-3.149e+00,1.8,-1.19
-3.146e+00,1.6,-1.19
-3.142e+00,1.8,-1.19
-3.139e+00,1.6,-1.19
-3.136e+00,1.4,-1.19
-3.133e+00,1.6,-1.19
-3.130e+00,1.6,-1.19
-3.126e+00,1.6,-1.19
-3.123e+00,1.4,-1.19
-3.120e+00,1.4,-1.19
-3.117e+00,1.4,-1.19
-3.114e+00,1.2,-1.19
-3.110e+00,1.4,-1.19
-3.107e+00,1.2,-1.19
-3.104e+00,1,-1.19
-3.101e+00,1.2,-1.19
-3.098e+00,1,-1.19
-3.094e+00,1,-1.19
-3.091e+00,1,-1.19
-3.088e+00,1,-1.19
-3.085e+00,1,-1.19
-3.082e+00,0.8,-1.19
-3.078e+00,0.8,-1.19
-3.075e+00,0.8,-1.19
-3.072e+00,0.8,-1.19
-3.069e+00,0.6,-1.19
-3.066e+00,0.6,-1.19
-3.062e+00,0.6,-1.19
-3.059e+00,0.6,-1.19
-3.056e+00,0.6,-1.19
-3.053e+00,0.4,-1.19
-3.050e+00,0.4,-1.19
-3.046e+00,0.4,-1.19
-3.043e+00,0.4,-1.19
-3.040e+00,0.4,-1.19
-3.037e+00,0.4,-1.19
-3.034e+00,0.2,-1.19
-3.030e+00,0.2,-1.19
-3.027e+00,0.2,0.05
-3.024e+00,0.2,0.03
-3.021e+00,0.2,0.05
-3.018e+00,0.2,0.05
-3.014e+00,0.2,0.05
-3.011e+00,0.2,0.05
-3.008e+00,-2.38419e-07,0.03
-3.005e+00,0.2,0.05
-3.002e+00,0.2,0.05
-2.998e+00,0.2,0.05
-2.995e+00,0.2,0.05
-2.992e+00,0.2,0.03
-2.989e+00,0.4,0.03
-2.986e+00,0.2,0.03
-2.982e+00,0.4,0.05
-2.979e+00,0.4,0.03
-2.976e+00,0.2,0.05
-2.973e+00,0.2,0.05
-2.970e+00,0.2,0.05
-2.966e+00,0.4,0.03
-2.963e+00,0.2,0.05
-2.960e+00,0.4,0.05
-2.957e+00,0.4,0.05
-2.954e+00,0.4,0.03
-2.950e+00,0.4,0.05
-2.947e+00,0.4,0.05
-2.944e+00,0.4,0.05
-2.941e+00,0.4,0.05
-2.938e+00,0.4,0.05
-2.934e+00,0.4,0.05
-2.931e+00,0.4,0.05
-2.928e+00,0.4,0.03
-2.925e+00,0.4,0.05
-2.922e+00,0.2,0.05
-2.918e+00,0.4,0.05
-2.915e+00,0.2,0.05
-2.912e+00,0.4,0.05
-2.909e+00,0.4,0.05
-2.906e+00,0.4,0.07
-2.902e+00,0.4,0.05
-2.899e+00,0.4,0.05
-2.896e+00,0.4,0.05
-2.893e+00,0.4,0.05
-2.890e+00,0.4,0.05
-2.886e+00,0.4,0.05
-2.883e+00,0.2,0.05
-2.880e+00,0.4,0.05
-2.877e+00,0.4,0.05
-2.874e+00,0.4,0.05
-2.870e+00,0.4,0.05
-2.867e+00,0.6,0.05
-2.864e+00,0.4,0.05
-2.861e+00,0.6,0.05
-2.858e+00,0.4,0.05
-2.854e+00,0.4,0.05
-2.851e+00,0.4,0.05
-2.848e+00,0.6,0.05
-2.845e+00,0.6,0.05
-2.842e+00,0.6,0.03
-2.838e+00,0.6,0.05
-2.835e+00,0.6,0.05
-2.832e+00,0.6,0.05
-2.829e+00,0.6,0.05
-2.826e+00,0.6,0.05
-2.822e+00,0.6,0.05
-2.819e+00,0.6,0.03
-2.816e+00,0.6,0.05
-2.813e+00,0.6,0.03
-2.810e+00,0.6,0.03
-2.806e+00,0.6,0.03
-2.803e+00,0.6,0.05
-2.800e+00,0.6,0.03
-2.797e+00,0.6,0.03
-2.794e+00,0.6,0.03
-2.790e+00,0.6,0.03
-2.787e+00,0.8,0.03
-2.784e+00,0.6,0.05
-2.781e+00,0.6,0.03
-2.778e+00,0.6,0.05
-2.774e+00,0.6,0.05
-2.771e+00,0.6,0.05
-2.768e+00,0.6,0.05
-2.765e+00,0.6,0.05
-2.762e+00,0.8,0.03
-2.758e+00,0.8,0.05
-2.755e+00,0.8,0.05
-2.752e+00,0.8,0.05
-2.749e+00,0.6,0.05
-2.746e+00,0.6,0.05
-2.742e+00,0.8,0.05
-2.739e+00,0.6,0.05
-2.736e+00,0.8,0.05
-2.733e+00,0.8,0.05
-2.730e+00,0.8,0.05
-2.726e+00,0.8,0.05
-2.723e+00,0.8,0.05
-2.720e+00,0.8,0.05
-2.717e+00,0.6,0.05
-2.714e+00,0.8,0.05
-2.710e+00,0.8,0.05
-2.707e+00,0.8,0.05
-2.704e+00,0.8,0.05
-2.701e+00,0.8,0.03
-2.698e+00,0.6,0.05
-2.694e+00,0.6,0.05
-2.691e+00,0.8,0.03
-2.688e+00,0.8,0.05
-2.685e+00,0.8,0.03
-2.682e+00,0.8,0.05
-2.678e+00,0.8,0.03
-2.675e+00,0.8,0.05
-2.672e+00,1,0.05
-2.669e+00,1,0.03
-2.666e+00,0.8,0.03
-2.662e+00,0.8,0.05
-2.659e+00,0.8,0.03
-2.656e+00,1,0.03
-2.653e+00,1,0.03
-2.650e+00,0.8,0.03
-2.646e+00,0.8,0.03
-2.643e+00,1,0.03
-2.640e+00,0.8,0.05
-2.637e+00,1,0.03
-2.634e+00,1,0.03
-2.630e+00,0.8,0.03
-2.627e+00,1,0.03
-2.624e+00,1,0.05
-2.621e+00,1,0.03
-2.618e+00,1,0.03
-2.614e+00,1,0.03
-2.611e+00,1,0.05
-2.608e+00,0.8,0.03
-2.605e+00,0.8,0.05
-2.602e+00,1,0.05
-2.598e+00,0.8,0.05
-2.595e+00,1,0.03
-2.592e+00,0.8,0.05
-2.589e+00,1,0.05
-2.586e+00,1,0.05
-2.582e+00,1.2,0.05
-2.579e+00,1,0.05
-2.576e+00,0.8,0.05
-2.573e+00,1,0.05
-2.570e+00,1,0.05
-2.566e+00,1,0.05
-2.563e+00,1,0.05
-2.560e+00,1,0.07
-2.557e+00,1,0.05
-2.554e+00,1.2,0.05
-2.550e+00,1.2,0.05
-2.547e+00,1.2,0.05
-2.544e+00,1.2,0.05
-2.541e+00,1.2,0.05
-2.538e+00,1.2,0.05
-2.534e+00,1.2,0.05
-2.531e+00,1.2,0.05
-2.528e+00,1.2,0.05
-2.525e+00,1.2,0.05
-2.522e+00,1.2,0.05
-2.518e+00,1.2,0.05
-2.515e+00,1.2,0.03
-2.512e+00,1.2,0.05
-2.509e+00,1.2,0.03
-2.506e+00,1,0.05
-2.502e+00,1.2,0.05
-2.499e+00,1.2,0.05
-2.496e+00,1.2,0.05
-2.493e+00,1.2,0.05
-2.490e+00,1.2,0.05
-2.486e+00,1.2,0.05
-2.483e+00,1.2,0.03
-2.480e+00,1.2,0.03
-2.477e+00,1.4,0.03
-2.474e+00,1.2,0.03
-2.470e+00,1.2,0.03
-2.467e+00,1.2,0.03
-2.464e+00,1.4,0.03
-2.461e+00,1.2,0.03
-2.458e+00,1.2,0.03
-2.454e+00,1.2,0.03
-2.451e+00,1.4,0.03
-2.448e+00,1.2,0.03
-2.445e+00,1.2,0.03
-2.442e+00,1.4,0.03
-2.438e+00,1.4,0.03
-2.435e+00,1.4,0.03
-2.432e+00,1.4,0.03
-2.429e+00,1.4,0.03
-2.426e+00,1.2,0.03
-2.422e+00,1.2,0.03
-2.419e+00,1.4,0.03
-2.416e+00,1.4,0.03
-2.413e+00,1.4,0.03
-2.410e+00,1.2,0.01
-2.406e+00,1.4,0.03
-2.403e+00,1.2,0.03
-2.400e+00,1.2,0.03
-2.397e+00,1.4,0.03
-2.394e+00,1.2,0.03
-2.390e+00,1.4,0.03
-2.387e+00,1.4,0.03
-2.384e+00,1.2,0.03
-2.381e+00,1.4,0.03
-2.378e+00,1.4,0.03
-2.374e+00,1.2,0.03
-2.371e+00,1.4,0.03
-2.368e+00,1.4,0.03
-2.365e+00,1.4,0.03
-2.362e+00,1.4,0.03
-2.358e+00,1.4,0.03
-2.355e+00,1.4,0.03
-2.352e+00,1.4,0.01
-2.349e+00,1.6,0.03
-2.346e+00,1.4,0.03
-2.342e+00,1.4,0.03
-2.339e+00,1.6,0.03
-2.336e+00,1.6,0.03
-2.333e+00,1.4,0.03
-2.330e+00,1.4,0.03
-2.326e+00,1.6,0.03
-2.323e+00,1.4,0.05
-2.320e+00,1.6,0.03
-2.317e+00,1.6,0.03
-2.314e+00,1.6,0.03
-2.310e+00,1.6,0.03
-2.307e+00,1.6,0.01
-2.304e+00,1.6,0.03
-2.301e+00,1.6,0.03
-2.298e+00,1.6,0.03
-2.294e+00,1.4,0.03
-2.291e+00,1.6,0.03
-2.288e+00,1.6,0.01
-2.285e+00,1.6,0.01
-2.282e+00,1.6,0.03
-2.278e+00,1.6,0.03
-2.275e+00,1.6,0.03
-2.272e+00,1.6,0.03
-2.269e+00,1.6,0.01
-2.266e+00,1.6,0.03
-2.262e+00,1.6,0.03
-2.259e+00,1.6,0.03
-2.256e+00,1.6,0.01
-2.253e+00,1.6,0.03
-2.250e+00,1.6,0.03
-2.246e+00,1.6,0.03
-2.243e+00,1.6,0.03
-2.240e+00,1.8,0.03
-2.237e+00,1.8,0.03
-2.234e+00,1.8,0.03
-2.230e+00,1.8,0.03
-2.227e+00,1.8,0.03
-2.224e+00,1.6,0.05
-2.221e+00,1.8,0.05
-2.218e+00,1.8,0.05
-2.214e+00,1.8,0.03
-2.211e+00,1.8,0.03
-2.208e+00,1.6,0.05
-2.205e+00,1.8,0.03
-2.202e+00,1.6,0.05
-2.198e+00,1.6,0.05
-2.195e+00,1.8,0.05
-2.192e+00,1.8,0.05
-2.189e+00,1.8,0.05
-2.186e+00,1.8,0.05
-2.182e+00,1.8,0.05
-2.179e+00,1.8,0.05
-2.176e+00,1.8,0.05
-2.173e+00,1.8,0.05
-2.170e+00,1.8,0.05
-2.166e+00,1.8,0.05
-2.163e+00,1.8,0.05
-2.160e+00,1.8,0.05
-2.157e+00,1.8,0.05
-2.154e+00,1.8,0.05
-2.150e+00,1.8,0.05
-2.147e+00,1.8,0.07
-2.144e+00,1.8,0.07
-2.141e+00,1.8,0.05
-2.138e+00,1.8,0.05
-2.134e+00,1.8,0.05
-2.131e+00,1.8,0.03
-2.128e+00,1.8,0.05
-2.125e+00,1.8,0.03
-2.122e+00,2,0.05
-2.118e+00,1.8,0.05
-2.115e+00,2,0.05
-2.112e+00,1.8,0.05
-2.109e+00,2,0.03
-2.106e+00,1.8,0.05
-2.102e+00,2,0.03
-2.099e+00,1.8,0.05
-2.096e+00,2,0.05
-2.093e+00,2,0.05
-2.090e+00,2,0.05
-2.086e+00,2,0.05
-2.083e+00,2,0.05
-2.080e+00,1.8,0.05
-2.077e+00,2,0.03
-2.074e+00,2,0.05
-2.070e+00,2,0.05
-2.067e+00,1.8,0.05
-2.064e+00,2,0.05
-2.061e+00,2,0.05
-2.058e+00,1.8,0.05
-2.054e+00,2,0.05
-2.051e+00,2,0.05
-2.048e+00,2,0.05
-2.045e+00,2,0.05
-2.042e+00,2,0.05
-2.038e+00,2,0.05
-2.035e+00,2.2,0.05
-2.032e+00,2,0.05
-2.029e+00,2.2,0.05
-2.026e+00,2,0.05
-2.022e+00,2,0.03
-2.019e+00,2.2,0.03
-2.016e+00,2,0.03
-2.013e+00,2,0.03
-2.010e+00,2.2,0.03
-2.006e+00,2,0.03
-2.003e+00,2,0.03
-2.000e+00,2.2,0.03
-1.997e+00,2.2,0.03
-1.994e+00,2.2,0.03
-1.990e+00,2.2,0.03
-1.987e+00,2.2,0.03
-1.984e+00,2.2,0.03
-1.981e+00,2.2,0.01
-1.978e+00,2.2,0.03
-1.974e+00,2.2,0.03
-1.971e+00,2,0.05
-1.968e+00,2.2,0.03
-1.965e+00,2.2,0.03
-1.962e+00,2.2,0.03
-1.958e+00,2.2,0.03
-1.955e+00,2.2,0.03
-1.952e+00,2.2,0.03
-1.949e+00,2.2,0.03
-1.946e+00,2.2,0.03
-1.942e+00,2.2,0.03
-1.939e+00,2.2,0.05
-1.936e+00,2.2,0.05
-1.933e+00,2.2,0.03
-1.930e+00,2.2,0.03
-1.926e+00,2.2,0.03
-1.923e+00,2.2,0.05
-1.920e+00,2.2,0.05
-1.917e+00,2.2,0.03
-1.914e+00,2.2,0.05
-1.910e+00,2.2,0.05
-1.907e+00,2.2,0.05
-1.904e+00,2.2,0.05
-1.901e+00,2.4,0.05
-1.898e+00,2.4,0.05
-1.894e+00,2.4,0.05
-1.891e+00,2.2,0.03
-1.888e+00,2.4,0.05
-1.885e+00,2.4,0.05
-1.882e+00,2.4,0.05
-1.878e+00,2.4,0.05
-1.875e+00,2.4,0.05
-1.872e+00,2.4,0.05
-1.869e+00,2.4,0.05
-1.866e+00,2.4,0.05
-1.862e+00,2.4,0.05
-1.859e+00,2.4,0.05
-1.856e+00,2.4,0.05
-1.853e+00,2.4,0.05
-1.850e+00,2.4,0.03
-1.846e+00,2.4,0.05
-1.843e+00,2.4,0.05
-1.840e+00,2.4,0.05
-1.837e+00,2.4,0.03
-1.834e+00,2.4,0.05
-1.830e+00,2.4,0.05
-1.827e+00,2.4,0.03
-1.824e+00,2.4,0.05
-1.821e+00,2.4,0.05
-1.818e+00,2.4,0.05
-1.814e+00,2.4,0.05
-1.811e+00,2.4,0.05
-1.808e+00,2.6,0.03
-1.805e+00,2.6,0.03
-1.802e+00,2.4,0.03
-1.798e+00,2.6,0.05
-1.795e+00,2.6,0.05
-1.792e+00,2.6,0.05
-1.789e+00,2.6,0.03
-1.786e+00,2.6,0.05
-1.782e+00,2.6,0.05
-1.779e+00,2.6,0.05
-1.776e+00,2.6,0.05
-1.773e+00,2.4,0.05
-1.770e+00,2.6,0.05
-1.766e+00,2.4,0.05
-1.763e+00,2.6,0.05
-1.760e+00,2.6,0.05
-1.757e+00,2.4,0.05
-1.754e+00,2.6,0.03
-1.750e+00,2.6,0.05
-1.747e+00,2.6,0.03
-1.744e+00,2.4,0.05
-1.741e+00,2.6,0.05
-1.738e+00,2.6,0.03
-1.734e+00,2.6,0.05
-1.731e+00,2.6,0.05
-1.728e+00,2.6,0.03
-1.725e+00,2.6,0.05
-1.722e+00,2.6,0.05
-1.718e+00,2.8,0.05
-1.715e+00,2.6,0.05
-1.712e+00,2.8,0.05
-1.709e+00,2.6,0.03
-1.706e+00,2.8,0.05
-1.702e+00,2.8,0.03
-1.699e+00,2.8,0.05
-1.696e+00,2.8,0.05
-1.693e+00,2.8,0.05
-1.690e+00,2.6,0.05
-1.686e+00,2.8,0.05
-1.683e+00,2.6,0.05
-1.680e+00,2.8,0.05
-1.677e+00,2.6,0.05
-1.674e+00,2.8,0.05
-1.670e+00,2.8,0.05
-1.667e+00,2.8,0.05
-1.664e+00,2.8,0.05
-1.661e+00,2.8,0.05
-1.658e+00,2.8,0.05
-1.654e+00,2.8,0.03
-1.651e+00,2.8,0.03
-1.648e+00,2.8,0.03
-1.645e+00,2.8,0.03
-1.642e+00,2.6,0.05
-1.638e+00,2.8,0.05
-1.635e+00,2.8,0.03
-1.632e+00,2.8,0.05
-1.629e+00,2.8,0.03
-1.626e+00,2.8,0.05
-1.622e+00,3,0.05
-1.619e+00,2.8,0.05
-1.616e+00,2.8,0.03
-1.613e+00,2.8,0.03
-1.610e+00,2.8,0.03
-1.606e+00,2.8,0.03
-1.603e+00,2.8,0.03
-1.600e+00,3,0.03
-1.597e+00,2.8,0.03
-1.594e+00,2.8,0.03
-1.590e+00,2.8,0.01
-1.587e+00,3,0.03
-1.584e+00,3,0.03
-1.581e+00,3,0.03
-1.578e+00,2.8,0.03
-1.574e+00,3,0.03
-1.571e+00,3,0.03
-1.568e+00,2.8,0.03
-1.565e+00,3,0.03
-1.562e+00,2.8,0.03
-1.558e+00,3,0.03
-1.555e+00,3,0.03
-1.552e+00,3,0.01
-1.549e+00,3,0.03
-1.546e+00,3,0.03
-1.542e+00,3,0.03
-1.539e+00,3,0.03
-1.536e+00,3,0.03
-1.533e+00,3,0.01
-1.530e+00,3,0.03
-1.526e+00,3,0.01
-1.523e+00,3,0.03
-1.520e+00,3.2,0.03
-1.517e+00,3,0.03
-1.514e+00,3,0.03
-1.510e+00,3,0.03
-1.507e+00,3,0.01
-1.504e+00,3,0.03
-1.501e+00,3,0.03
-1.498e+00,3,0.03
-1.494e+00,3,0.03
-1.491e+00,3,0.03
-1.488e+00,3.2,0.01
-1.485e+00,3.2,0.03
-1.482e+00,3.2,0.03
-1.478e+00,3.2,0.03
-1.475e+00,3.2,0.05
-1.472e+00,3.2,0.03
-1.469e+00,3.2,0.03
-1.466e+00,3.2,0.03
-1.462e+00,3,0.03
-1.459e+00,3.2,0.03
-1.456e+00,3.2,0.05
-1.453e+00,3.2,0.05
-1.450e+00,3.2,0.03
-1.446e+00,3.2,0.03
-1.443e+00,3.2,0.03
-1.440e+00,3.2,0.03
-1.437e+00,3.2,0.03
-1.434e+00,3.2,0.03
-1.430e+00,3.2,0.03
-1.427e+00,3.2,0.03
-1.424e+00,3.2,0.03
-1.421e+00,3.2,0.03
-1.418e+00,3.2,0.01
-1.414e+00,3.2,0.03
-1.411e+00,3.2,0.03
-1.408e+00,3.4,0.03
-1.405e+00,3.4,0.01
-1.402e+00,3.2,0.03
-1.398e+00,3.2,0.03
-1.395e+00,3.2,0.03
-1.392e+00,3.2,0.03
-1.389e+00,3.2,0.03
-1.386e+00,3.4,0.03
-1.382e+00,3.4,0.03
-1.379e+00,3.2,0.05
-1.376e+00,3.2,0.03
-1.373e+00,3.4,0.05
-1.370e+00,3.4,0.03
-1.366e+00,3.2,0.05
-1.363e+00,3.2,0.03
-1.360e+00,3.4,0.03
-1.357e+00,3.4,0.05
-1.354e+00,3.4,0.05
-1.350e+00,3.4,0.05
-1.347e+00,3.4,0.05
-1.344e+00,3.4,0.05
-1.341e+00,3.2,0.05
-1.338e+00,3.4,0.05
-1.334e+00,3.4,0.03
-1.331e+00,3.4,0.03
-1.328e+00,3.4,0.05
-1.325e+00,3.4,0.05
-1.322e+00,3.4,0.05
-1.318e+00,3.4,0.05
-1.315e+00,3.4,0.05
-1.312e+00,3.4,0.05
-1.309e+00,3.4,0.05
-1.306e+00,3.6,0.07
-1.302e+00,3.4,0.03
-1.299e+00,3.4,0.07
-1.296e+00,3.4,0.05
-1.293e+00,3.6,0.05
-1.290e+00,3.6,0.05
-1.286e+00,3.4,0.07
-1.283e+00,3.4,0.05
-1.280e+00,3.4,0.05
-1.277e+00,3.4,0.05
-1.274e+00,3.6,0.07
-1.270e+00,3.4,0.05
-1.267e+00,3.6,0.05
-1.264e+00,3.6,0.05
-1.261e+00,3.6,0.05
-1.258e+00,3.6,0.03
-1.254e+00,3.6,0.05
-1.251e+00,3.6,0.03
-1.248e+00,3.6,0.05
-1.245e+00,3.4,0.05
-1.242e+00,3.6,0.05
-1.238e+00,3.6,0.05
-1.235e+00,3.6,0.05
-1.232e+00,3.6,0.05
-1.229e+00,3.6,0.03
-1.226e+00,3.6,0.03
-1.222e+00,3.6,0.03
-1.219e+00,3.6,0.05
-1.216e+00,3.6,0.05
-1.213e+00,3.6,0.03
-1.210e+00,3.6,0.03
-1.206e+00,3.6,0.03
-1.203e+00,3.6,0.03
-1.200e+00,3.6,0.03
-1.197e+00,3.6,0.03
-1.194e+00,3.8,0.03
-1.190e+00,3.8,0.03
-1.187e+00,3.6,0.03
-1.184e+00,3.6,0.03
-1.181e+00,3.6,0.03
-1.178e+00,3.8,0.03
-1.174e+00,3.6,0.03
-1.171e+00,3.8,0.03
-1.168e+00,3.8,0.03
-1.165e+00,3.6,0.03
-1.162e+00,3.8,0.03
-1.158e+00,3.6,0.03
-1.155e+00,3.8,0.03
-1.152e+00,3.8,0.03
-1.149e+00,3.6,0.03
-1.146e+00,3.6,0.03
-1.142e+00,3.8,0.03
-1.139e+00,3.8,0.03
-1.136e+00,3.6,0.03
-1.133e+00,3.8,0.03
-1.130e+00,3.6,0.03
-1.126e+00,3.8,0.03
-1.123e+00,3.8,0.03
-1.120e+00,3.8,0.03
-1.117e+00,3.6,0.03
-1.114e+00,3.8,0.03
-1.110e+00,3.8,0.03
-1.107e+00,3.8,0.03
-1.104e+00,3.8,0.03
-1.101e+00,3.8,0.03
-1.098e+00,3.8,0.03
-1.094e+00,3.8,0.03
-1.091e+00,3.8,0.03
-1.088e+00,3.8,0.01
-1.085e+00,3.8,0.03
-1.082e+00,3.8,0.03
-1.078e+00,3.8,0.05
-1.075e+00,3.8,0.03
-1.072e+00,3.8,0.05
-1.069e+00,4,0.03
-1.066e+00,4,0.03
-1.062e+00,3.8,0.03
-1.059e+00,4,0.03
-1.056e+00,3.8,0.03
-1.053e+00,3.8,0.05
-1.050e+00,3.8,0.03
-1.046e+00,4,0.05
-1.043e+00,4,0.03
-1.040e+00,3.8,0.03
-1.037e+00,4,0.03
-1.034e+00,4,0.05
-1.030e+00,4,0.05
-1.027e+00,4,0.03
-1.024e+00,4,0.05
-1.021e+00,4,0.05
-1.018e+00,3.8,0.05
-1.014e+00,4,0.05
-1.011e+00,3.8,0.05
-1.008e+00,4,0.07
-1.005e+00,4,0.05
-1.002e+00,4,0.05
-9.984e-01,4,0.05
-9.952e-01,4,0.05
-9.920e-01,4,0.05
-9.888e-01,4,0.05
-9.856e-01,4,0.07
-9.824e-01,4,0.07
-9.792e-01,4.2,0.05
-9.760e-01,4.2,0.07
-9.728e-01,4,0.05
-9.696e-01,4,0.05
-9.664e-01,4.2,0.05
-9.632e-01,4,0.05
-9.600e-01,4.2,0.07
-9.568e-01,4.2,0.05
-9.536e-01,4,0.07
-9.504e-01,4.2,0.05
-9.472e-01,4.2,0.05
-9.440e-01,4.2,0.05
-9.408e-01,4.2,0.07
-9.376e-01,4.2,0.05
-9.344e-01,4.2,0.05
-9.312e-01,4.2,0.05
-9.280e-01,4.2,0.05
-9.248e-01,4.2,0.05
-9.216e-01,4.2,0.05
-9.184e-01,4.2,0.05
-9.152e-01,4.2,0.07
-9.120e-01,4.2,0.05
-9.088e-01,4.2,0.07
-9.056e-01,4.2,0.05
-9.024e-01,4.2,0.05
-8.992e-01,4.2,0.05
-8.960e-01,4.2,0.03
-8.928e-01,4.2,0.05
-8.896e-01,4.2,0.05
-8.864e-01,4.2,0.05
-8.832e-01,4.2,0.05
-8.800e-01,4.2,0.05
-8.768e-01,4.2,0.05
-8.736e-01,4.2,0.05
-8.704e-01,4.2,0.05
-8.672e-01,4.4,0.05
-8.640e-01,4.2,0.05
-8.608e-01,4.2,0.05
-8.576e-01,4.4,0.07
-8.544e-01,4.4,0.05
-8.512e-01,4.4,0.05
-8.480e-01,4.4,0.05
-8.448e-01,4.2,0.05
-8.416e-01,4.4,0.07
-8.384e-01,4.2,0.07
-8.352e-01,4.4,0.05
-8.320e-01,4.4,0.07
-8.288e-01,4.2,0.07
-8.256e-01,4.4,0.07
-8.224e-01,4.4,0.09
-8.192e-01,4.4,0.07
-8.160e-01,4.2,0.07
-8.128e-01,4.4,0.09
-8.096e-01,4.4,0.09
-8.064e-01,4.4,0.09
-8.032e-01,4.4,0.09
-8.000e-01,4.4,0.09
-7.968e-01,4.4,0.09
-7.936e-01,4.4,0.09
-7.904e-01,4.4,0.09
-7.872e-01,4.4,0.09
-7.840e-01,4.4,0.11
-7.808e-01,4.4,0.11
-7.776e-01,4.4,0.11
-7.744e-01,4.4,0.11
-7.712e-01,4.6,0.11
-7.680e-01,4.4,0.13
-7.648e-01,4.4,0.11
-7.616e-01,4.4,0.13
-7.584e-01,4.4,0.11
-7.552e-01,4.6,0.13
-7.520e-01,4.4,0.13
-7.488e-01,4.4,0.13
-7.456e-01,4.4,0.15
-7.424e-01,4.6,0.13
-7.392e-01,4.6,0.13
-7.360e-01,4.6,0.15
-7.328e-01,4.6,0.13
-7.296e-01,4.6,0.13
-7.264e-01,4.6,0.15
-7.232e-01,4.4,0.17
-7.200e-01,4.6,0.17
-7.168e-01,4.6,0.17
-7.136e-01,4.4,0.17
-7.104e-01,4.6,0.17
-7.072e-01,4.6,0.19
-7.040e-01,4.6,0.17
-7.008e-01,4.6,0.19
-6.976e-01,4.6,0.19
-6.944e-01,4.4,0.19
-6.912e-01,4.6,0.19
-6.880e-01,4.6,0.19
-6.848e-01,4.6,0.21
-6.816e-01,4.6,0.21
-6.784e-01,4.6,0.21
-6.752e-01,4.6,0.21
-6.720e-01,4.6,0.21
-6.688e-01,4.6,0.23
-6.656e-01,4.6,0.23
-6.624e-01,4.6,0.23
-6.592e-01,4.6,0.21
-6.560e-01,4.6,0.25
-6.528e-01,4.6,0.23
-6.496e-01,4.6,0.25
-6.464e-01,4.6,0.25
-6.432e-01,4.6,0.25
-6.400e-01,4.6,0.27
-6.368e-01,4.6,0.27
-6.336e-01,4.6,0.27
-6.304e-01,4.6,0.27
-6.272e-01,4.8,0.27
-6.240e-01,4.8,0.29
-6.208e-01,4.8,0.29
-6.176e-01,4.6,0.29
-6.144e-01,4.8,0.31
-6.112e-01,4.8,0.29
-6.080e-01,4.8,0.31
-6.048e-01,4.8,0.33
-6.016e-01,4.8,0.33
-5.984e-01,4.8,0.33
-5.952e-01,4.8,0.35
-5.920e-01,4.8,0.35
-5.888e-01,4.8,0.37
-5.856e-01,4.8,0.37
-5.824e-01,4.8,0.39
-5.792e-01,4.8,0.41
-5.760e-01,4.8,0.39
-5.728e-01,4.8,0.41
-5.696e-01,4.8,0.41
-5.664e-01,4.8,0.45
-5.632e-01,4.8,0.45
-5.600e-01,4.8,0.47
-5.568e-01,4.8,0.49
-5.536e-01,5,0.49
-5.504e-01,4.8,0.51
-5.472e-01,4.8,0.53
-5.440e-01,5,0.55
-5.408e-01,4.8,0.57
-5.376e-01,4.8,0.59
-5.344e-01,5,0.61
-5.312e-01,4.8,0.63
-5.280e-01,4.8,0.63
-5.248e-01,4.8,0.67
-5.216e-01,5,0.67
-5.184e-01,5,0.71
-5.152e-01,5,0.73
-5.120e-01,4.8,0.75
-5.088e-01,5,0.77
-5.056e-01,4.8,0.77
-5.024e-01,5,0.81
-4.992e-01,5,0.85
-4.960e-01,5,0.85
-4.928e-01,5,0.87
-4.896e-01,5,0.91
-4.864e-01,5,0.93
-4.832e-01,5,0.95
-4.800e-01,5,0.97
-4.768e-01,5,0.97
-4.736e-01,5,1.01
-4.704e-01,5,1.05
-4.672e-01,5,1.07
-4.640e-01,5,1.09
-4.608e-01,5,1.11
-4.576e-01,5,1.13
-4.544e-01,5,1.15
-4.512e-01,5,1.17
-4.480e-01,5,1.19
-4.448e-01,5,1.21
-4.416e-01,5,1.23
-4.384e-01,5,1.27
-4.352e-01,5.2,1.27
-4.320e-01,5,1.31
-4.288e-01,5,1.33
-4.256e-01,5.2,1.35
-4.224e-01,5,1.39
-4.192e-01,5.2,1.41
-4.160e-01,5.2,1.43
-4.128e-01,5.2,1.45
-4.096e-01,5.2,1.47
-4.064e-01,5.2,1.51
-4.032e-01,5.2,1.53
-4.000e-01,5.2,1.55
-3.968e-01,5.2,1.57
-3.936e-01,5.2,1.61
-3.904e-01,5.2,1.63
-3.872e-01,5.2,1.65
-3.840e-01,5.2,1.67
-3.808e-01,5.2,1.69
-3.776e-01,5,1.73
-3.744e-01,5.2,1.75
-3.712e-01,5.2,1.77
-3.680e-01,5.2,1.81
-3.648e-01,5.2,1.83
-3.616e-01,5.2,1.85
-3.584e-01,5.2,1.87
-3.552e-01,5.2,1.89
-3.520e-01,5.2,1.91
-3.488e-01,5.4,1.93
-3.456e-01,5.2,1.95
-3.424e-01,5.2,1.97
-3.392e-01,5.2,2.01
-3.360e-01,5.4,2.03
-3.328e-01,5.4,2.05
-3.296e-01,5.2,2.07
-3.264e-01,5.2,2.09
-3.232e-01,5.2,2.09
-3.200e-01,5.4,2.13
-3.168e-01,5.4,2.13
-3.136e-01,5.4,2.17
-3.104e-01,5.4,2.19
-3.072e-01,5.4,2.19
-3.040e-01,5.4,2.21
-3.008e-01,5.4,2.23
-2.976e-01,5.4,2.25
-2.944e-01,5.4,2.27
-2.912e-01,5.4,2.29
-2.880e-01,5.4,2.31
-2.848e-01,5.2,2.31
-2.816e-01,5.4,2.35
-2.784e-01,5.4,2.33
-2.752e-01,5.4,2.37
-2.720e-01,5.4,2.37
-2.688e-01,5.4,2.39
-2.656e-01,5.4,2.39
-2.624e-01,5.4,2.41
-2.592e-01,5.4,2.41
-2.560e-01,5.4,2.43
-2.528e-01,5.4,2.43
-2.496e-01,5.4,2.45
-2.464e-01,5.4,2.45
-2.432e-01,5.4,2.47
-2.400e-01,5.4,2.49
-2.368e-01,5.4,2.49
-2.336e-01,5.4,2.51
-2.304e-01,5.4,2.53
-2.272e-01,5.4,2.53
-2.240e-01,5.4,2.53
-2.208e-01,5.4,2.55
-2.176e-01,5.6,2.57
-2.144e-01,5.4,2.57
-2.112e-01,5.6,2.57
-2.080e-01,5.6,2.61
-2.048e-01,5.4,2.61
-2.016e-01,5.6,2.61
-1.984e-01,5.6,2.61
-1.952e-01,5.6,2.63
-1.920e-01,5.6,2.63
-1.888e-01,5.6,2.65
-1.856e-01,5.6,2.65
-1.824e-01,5.6,2.65
-1.792e-01,5.6,2.67
-1.760e-01,5.6,2.67
-1.728e-01,5.6,2.69
-1.696e-01,5.6,2.69
-1.664e-01,5.6,2.69
-1.632e-01,5.4,2.69
-1.600e-01,5.6,2.71
-1.568e-01,5.6,2.71
-1.536e-01,5.6,2.71
-1.504e-01,5.4,2.73
-1.472e-01,5.6,2.71
-1.440e-01,5.6,2.73
-1.408e-01,5.6,2.73
-1.376e-01,5.6,2.75
-1.344e-01,5.6,2.75
-1.312e-01,5.6,2.77
-1.280e-01,5.8,2.75
-1.248e-01,5.6,2.75
-1.216e-01,5.8,2.77
-1.184e-01,5.8,2.77
-1.152e-01,5.6,2.77
-1.120e-01,5.6,2.77
-1.088e-01,5.8,2.77
-1.056e-01,5.6,2.77
-1.024e-01,5.6,2.79
-9.920e-02,5.6,2.79
-9.600e-02,5.8,2.79
-9.280e-02,5.8,2.79
-8.960e-02,5.8,2.79
-8.640e-02,5.8,2.79
-8.320e-02,5.8,2.81
-8.000e-02,5.8,2.79
-7.680e-02,5.8,2.79
-7.360e-02,5.8,2.81
-7.040e-02,5.6,2.81
-6.720e-02,5.8,2.81
-6.400e-02,5.8,2.81
-6.080e-02,5.8,2.79
-5.760e-02,5.8,2.81
-5.440e-02,5.8,2.81
-5.120e-02,5.8,2.81
-4.800e-02,5.8,2.81
-4.480e-02,5.8,2.81
-4.160e-02,5.8,2.79
-3.840e-02,5.8,2.79
-3.520e-02,5.8,2.81
-3.200e-02,6,2.79
-2.880e-02,5.8,2.79
-2.560e-02,5.8,2.79
-2.240e-02,5.8,2.79
-1.920e-02,6,2.79
-1.600e-02,5.8,2.79
