Massenspektrometer/TEK00017.CSV

Model,TBS2102B
Firmware Version,v1.32.139

Point Format,Y,
Horizontal Units,S,
Horizontal Scale,1,
Sample Interval,0.008,
Filter Frequency,2e+08,
Record Length,2000,
Gating,0.0% to 100.0%,0.0% to 100.0%
Probe Attenuation,1,1
Vertical Units,V,V
Vertical Offset,0,0
Vertical Scale,10,1
Label,,
TIME,CH1,CH2
-8.000e+00,-52,0.02
-7.992e+00,-52,0.02
-7.984e+00,-52,-0.02
-7.976e+00,-52,0.02
-7.968e+00,-52.4,0.02
-7.960e+00,-52,0.02
-7.952e+00,-52,0.06
-7.944e+00,-52,0.06
-7.936e+00,-52,0.06
-7.928e+00,-52,0.06
-7.920e+00,-52,0.1
-7.912e+00,-52,0.1
-7.904e+00,-52,0.14
-7.896e+00,-52,0.1
-7.888e+00,-52,0.14
-7.880e+00,-52,0.14
-7.872e+00,-52,0.14
-7.864e+00,-52.4,0.1
-7.856e+00,-52.4,0.1
-7.848e+00,-52.4,0.1
-7.840e+00,-52,0.1
-7.832e+00,-52,0.1
-7.824e+00,-52,0.06
-7.816e+00,-52,0.1
-7.808e+00,-52.4,0.1
-7.800e+00,-52,0.06
-7.792e+00,-52.4,0.06
-7.784e+00,-52.4,0.06
-7.776e+00,-52.4,0.06
-7.768e+00,-52.4,0.02
-7.760e+00,-52,0.06
-7.752e+00,-52.4,0.06
-7.744e+00,-52,0.06
-7.736e+00,-52,0.06
-7.728e+00,-52.4,0.02
-7.720e+00,-52.4,0.06
-7.712e+00,-52.4,0.06
-7.704e+00,-52.4,0.06
-7.696e+00,-52,0.02
-7.688e+00,-52.4,0.06
-7.680e+00,-52.4,0.02
-7.672e+00,-52.4,0.02
-7.664e+00,-52.4,0.02
-7.656e+00,-52.8,0.06
-7.648e+00,-52.4,0.02
-7.640e+00,-52.4,0.06
-7.632e+00,-52.4,0.06
-7.624e+00,-52,0.06
-7.616e+00,-52.4,0.1
-7.608e+00,-52.4,0.1
-7.600e+00,-52.4,0.1
-7.592e+00,-52.4,0.1
-7.584e+00,-52.4,0.1
-7.576e+00,-52.4,0.1
-7.568e+00,-52.4,0.1
-7.560e+00,-52.4,0.06
-7.552e+00,-52.4,0.1
-7.544e+00,-52.4,0.1
-7.536e+00,-52.4,0.1
-7.528e+00,-52.4,0.06
-7.520e+00,-52.4,0.06
-7.512e+00,-52.8,0.02
-7.504e+00,-52.4,0.1
-7.496e+00,-52.4,0.06
-7.488e+00,-52.4,0.06
-7.480e+00,-52.4,0.06
-7.472e+00,-52.4,0.06
-7.464e+00,-52.8,0.06
-7.456e+00,-52.4,0.06
-7.448e+00,-52.8,0.1
-7.440e+00,-52.8,0.1
-7.432e+00,-52.4,0.1
-7.424e+00,-52.4,0.14
-7.416e+00,-52.4,0.18
-7.408e+00,-52.8,0.18
-7.400e+00,-52,0.22
-7.392e+00,-52.4,0.22
-7.384e+00,-52.8,0.3
-7.376e+00,-52.8,0.3
-7.368e+00,-52.4,0.34
-7.360e+00,-52.4,0.38
-7.352e+00,-52.8,0.42
-7.344e+00,-52.4,0.42
-7.336e+00,-52.4,0.42
-7.328e+00,-52.8,0.38
-7.320e+00,-52.8,0.34
-7.312e+00,-52.8,0.3
-7.304e+00,-52.8,0.22
-7.296e+00,-52.8,0.18
-7.288e+00,-52.8,0.14
-7.280e+00,-52.8,0.1
-7.272e+00,-52.8,0.06
-7.264e+00,-53.2,0.06
-7.256e+00,-52.8,0.02
-7.248e+00,-52.8,0.02
-7.240e+00,-52.8,0.02
-7.232e+00,-52.8,0.06
-7.224e+00,-52.8,0.06
-7.216e+00,-52.8,0.02
-7.208e+00,-52.4,0.06
-7.200e+00,-52.4,0.1
-7.192e+00,-52.8,0.06
-7.184e+00,-52.8,0.1
-7.176e+00,-52.8,0.1
-7.168e+00,-52.8,0.1
-7.160e+00,-52.8,0.02
-7.152e+00,-52.8,0.02
-7.144e+00,-52.8,0.02
-7.136e+00,-52.8,-0.02
-7.128e+00,-52.8,-0.06
-7.120e+00,-52.8,-0.1
-7.112e+00,-52.8,-0.06
-7.104e+00,-53.2,-0.1
-7.096e+00,-52.8,-0.1
-7.088e+00,-53.2,-0.06
-7.080e+00,-52.8,-0.02
-7.072e+00,-53.2,-0.02
-7.064e+00,-53.2,0.06
-7.056e+00,-53.2,0.06
-7.048e+00,-53.2,0.1
-7.040e+00,-53.2,0.14
-7.032e+00,-53.2,0.14
-7.024e+00,-53.2,0.18
-7.016e+00,-53.2,0.18
-7.008e+00,-52.8,0.18
-7.000e+00,-53.2,0.22
-6.992e+00,-53.2,0.18
-6.984e+00,-53.2,0.14
-6.976e+00,-52.8,0.14
-6.968e+00,-53.2,0.06
-6.960e+00,-53.2,0.1
-6.952e+00,-53.2,0.02
-6.944e+00,-53.2,0.06
-6.936e+00,-53.2,0.02
-6.928e+00,-53.2,0.06
-6.920e+00,-53.2,0.06
-6.912e+00,-53.2,0.1
-6.904e+00,-53.2,0.1
-6.896e+00,-53.2,0.14
-6.888e+00,-53.2,0.18
-6.880e+00,-53.2,0.22
-6.872e+00,-53.2,0.26
-6.864e+00,-53.2,0.3
-6.856e+00,-53.2,0.34
-6.848e+00,-53.2,0.3
-6.840e+00,-53.2,0.26
-6.832e+00,-53.2,0.18
-6.824e+00,-53.2,0.14
-6.816e+00,-53.6,0.1
-6.808e+00,-53.2,0.06
-6.800e+00,-53.2,0.02
-6.792e+00,-53.2,0.02
-6.784e+00,-53.2,-0.06
-6.776e+00,-53.2,-0.02
-6.768e+00,-53.2,-0.02
-6.760e+00,-53.2,-0.02
-6.752e+00,-53.6,-0.02
-6.744e+00,-53.6,0.06
-6.736e+00,-53.2,0.1
-6.728e+00,-53.6,0.14
-6.720e+00,-53.6,0.18
-6.712e+00,-53.6,0.18
-6.704e+00,-53.6,0.22
-6.696e+00,-53.6,0.26
-6.688e+00,-53.6,0.22
-6.680e+00,-53.2,0.22
-6.672e+00,-53.6,0.18
-6.664e+00,-53.6,0.14
-6.656e+00,-53.6,0.1
-6.648e+00,-53.6,0.06
-6.640e+00,-53.2,0.06
-6.632e+00,-53.6,0.02
-6.624e+00,-53.6,-0.02
-6.616e+00,-53.6,-0.02
-6.608e+00,-53.6,-0.02
-6.600e+00,-53.6,0.02
-6.592e+00,-54,0.02
-6.584e+00,-53.6,0.06
-6.576e+00,-53.2,0.1
-6.568e+00,-54,0.1
-6.560e+00,-53.6,0.1
-6.552e+00,-53.6,0.14
-6.544e+00,-53.6,0.14
-6.536e+00,-53.6,0.22
-6.528e+00,-53.6,0.22
-6.520e+00,-53.6,0.22
-6.512e+00,-53.6,0.22
-6.504e+00,-54,0.22
-6.496e+00,-53.6,0.22
-6.488e+00,-53.6,0.22
-6.480e+00,-53.6,0.22
-6.472e+00,-53.6,0.26
-6.464e+00,-54,0.22
-6.456e+00,-53.6,0.26
-6.448e+00,-54,0.26
-6.440e+00,-53.6,0.3
-6.432e+00,-54,0.34
-6.424e+00,-53.6,0.38
-6.416e+00,-53.6,0.42
-6.408e+00,-53.6,0.46
-6.400e+00,-54,0.46
-6.392e+00,-54,0.86
-6.384e+00,-54,0.82
-6.376e+00,-54,0.82
-6.368e+00,-53.6,0.82
-6.360e+00,-53.6,0.66
-6.352e+00,-54,0.62
-6.344e+00,-54,0.5
-6.336e+00,-53.6,0.46
-6.328e+00,-53.6,0.42
-6.320e+00,-54,0.38
-6.312e+00,-54,0.42
-6.304e+00,-54.4,0.42
-6.296e+00,-54,0.38
-6.288e+00,-54,0.42
-6.280e+00,-54,0.46
-6.272e+00,-54,0.5
-6.264e+00,-54,0.58
-6.256e+00,-54,0.78
-6.248e+00,-54,0.86
-6.240e+00,-54,0.9
-6.232e+00,-54,1.06
-6.224e+00,-54,1.14
-6.216e+00,-54,1.14
-6.208e+00,-54,1.14
-6.200e+00,-54,1.14
-6.192e+00,-54,1.1
-6.184e+00,-54,0.98
-6.176e+00,-54,1.02
-6.168e+00,-54,0.9
-6.160e+00,-54,0.78
-6.152e+00,-54,0.62
-6.144e+00,-54,0.46
-6.136e+00,-54,0.34
-6.128e+00,-54,0.26
-6.120e+00,-54,0.18
-6.112e+00,-54,0.14
-6.104e+00,-54,0.14
-6.096e+00,-54,0.18
-6.088e+00,-54.4,0.22
-6.080e+00,-54,0.26
-6.072e+00,-54,0.34
-6.064e+00,-54,0.46
-6.056e+00,-54,0.46
-6.048e+00,-54.4,0.54
-6.040e+00,-54.4,0.66
-6.032e+00,-54.4,0.74
-6.024e+00,-54,0.78
-6.016e+00,-54,0.78
-6.008e+00,-54,0.78
-6.000e+00,-54,0.7
-5.992e+00,-54.8,0.62
-5.984e+00,-54.4,0.5
-5.976e+00,-54.4,0.38
-5.968e+00,-54.4,0.22
-5.960e+00,-54.4,0.1
-5.952e+00,-54.4,0.02
-5.944e+00,-54,-0.1
-5.936e+00,-54.4,-0.18
-5.928e+00,-54.4,-0.26
-5.920e+00,-54.4,-0.3
-5.912e+00,-54.4,-0.34
-5.904e+00,-54.4,-0.3
-5.896e+00,-54.4,-0.22
-5.888e+00,-54.4,-0.14
-5.880e+00,-54.8,-0.1
-5.872e+00,-54.4,0.02
-5.864e+00,-54.4,0.14
-5.856e+00,-54.4,0.22
-5.848e+00,-54.4,0.34
-5.840e+00,-54.4,0.38
-5.832e+00,-54.8,0.46
-5.824e+00,-54.4,0.5
-5.816e+00,-54,0.5
-5.808e+00,-54.4,0.46
-5.800e+00,-54.4,0.38
-5.792e+00,-54.4,0.34
-5.784e+00,-54.4,0.22
-5.776e+00,-54.8,0.1
-5.768e+00,-54.8,-0.02
-5.760e+00,-54.8,-0.1
-5.752e+00,-55.2,-0.18
-5.744e+00,-54.8,-0.22
-5.736e+00,-54.8,-0.26
-5.728e+00,-54.8,-0.22
-5.720e+00,-54.4,-0.18
-5.712e+00,-54.4,-0.1
-5.704e+00,-54.8,-0.06
-5.696e+00,-54.8,0.02
-5.688e+00,-54.8,0.18
-5.680e+00,-54.4,0.26
-5.672e+00,-54.8,0.34
-5.664e+00,-54.4,0.42
-5.656e+00,-54.8,0.5
-5.648e+00,-55.2,0.5
-5.640e+00,-54.8,0.5
-5.632e+00,-54.8,0.46
-5.624e+00,-54.4,0.38
-5.616e+00,-54,0.3
-5.608e+00,-54.8,0.14
-5.600e+00,-54.8,0.06
-5.592e+00,-54.8,-0.06
-5.584e+00,-54.4,-0.14
-5.576e+00,-54.8,-0.26
-5.568e+00,-54.8,-0.26
-5.560e+00,-54.8,-0.26
-5.552e+00,-54.8,-0.22
-5.544e+00,-54.8,-0.18
-5.536e+00,-54.8,-0.14
-5.528e+00,-54.8,-0.02
-5.520e+00,-54.8,0.06
-5.512e+00,-54.8,0.18
-5.504e+00,-55.2,0.26
-5.496e+00,-54.8,0.34
-5.488e+00,-54.8,0.5
-5.480e+00,-54.8,0.54
-5.472e+00,-54.8,0.62
-5.464e+00,-54.8,0.58
-5.456e+00,-54.8,0.62
-5.448e+00,-54.8,0.58
-5.440e+00,-54.8,0.5
-5.432e+00,-54.8,0.38
-5.424e+00,-54.8,0.3
-5.416e+00,-54.8,0.18
-5.408e+00,-54.8,0.06
-5.400e+00,-54.8,-0.06
-5.392e+00,-54.8,-0.1
-5.384e+00,-54.8,-0.1
-5.376e+00,-54.8,-0.14
-5.368e+00,-55.2,-0.14
-5.360e+00,-54.8,-0.1
-5.352e+00,-54.8,0.02
-5.344e+00,-54.8,0.1
-5.336e+00,-55.2,0.22
-5.328e+00,-54.8,0.38
-5.320e+00,-54.8,0.5
-5.312e+00,-54.8,0.54
-5.304e+00,-54.8,0.66
-5.296e+00,-54.8,0.7
-5.288e+00,-55.2,0.74
-5.280e+00,-54.8,0.74
-5.272e+00,-55.2,0.66
-5.264e+00,-55.2,0.62
-5.256e+00,-55.2,0.54
-5.248e+00,-54.8,0.46
-5.240e+00,-55.2,0.3
-5.232e+00,-55.2,0.22
-5.224e+00,-54.8,0.14
-5.216e+00,-55.2,0.1
-5.208e+00,-54.8,0.1
-5.200e+00,-54.8,0.1
-5.192e+00,-55.2,0.14
-5.184e+00,-55.2,0.22
-5.176e+00,-55.6,0.26
-5.168e+00,-55.2,0.38
-5.160e+00,-55.2,0.5
-5.152e+00,-54.8,0.58
-5.144e+00,-55.2,0.62
-5.136e+00,-55.2,0.74
-5.128e+00,-55.2,0.78
-5.120e+00,-55.2,0.82
-5.112e+00,-55.2,0.82
-5.104e+00,-55.2,0.82
-5.096e+00,-55.2,0.74
-5.088e+00,-55.2,0.74
-5.080e+00,-55.2,0.66
-5.072e+00,-55.2,0.54
-5.064e+00,-55.2,0.42
-5.056e+00,-55.2,0.34
-5.048e+00,-55.2,0.3
-5.040e+00,-55.2,0.3
-5.032e+00,-55.2,0.26
-5.024e+00,-55.2,0.26
-5.016e+00,-55.2,0.34
-5.008e+00,-55.2,0.38
-5.000e+00,-55.2,0.42
-4.992e+00,-55.2,0.54
-4.984e+00,-55.2,0.66
-4.976e+00,-55.2,0.74
-4.968e+00,-55.2,0.82
-4.960e+00,-55.2,0.86
-4.952e+00,-55.6,0.94
-4.944e+00,-55.2,0.98
-4.936e+00,-55.2,0.94
-4.928e+00,-55.6,0.9
-4.920e+00,-55.2,0.86
-4.912e+00,-55.6,0.82
-4.904e+00,-55.2,0.74
-4.896e+00,-55.2,0.58
-4.888e+00,-55.2,0.5
-4.880e+00,-55.2,0.42
-4.872e+00,-55.2,0.3
-4.864e+00,-55.2,0.26
-4.856e+00,-55.6,0.22
-4.848e+00,-55.2,0.22
-4.840e+00,-55.6,0.22
-4.832e+00,-55.6,0.22
-4.824e+00,-55.6,0.3
-4.816e+00,-55.6,0.38
-4.808e+00,-55.6,0.5
-4.800e+00,-56,0.54
-4.792e+00,-55.2,0.66
-4.784e+00,-55.6,0.78
-4.776e+00,-55.6,0.86
-4.768e+00,-55.6,0.86
-4.760e+00,-55.6,0.94
-4.752e+00,-55.6,0.98
-4.744e+00,-55.6,1.02
-4.736e+00,-56,0.98
-4.728e+00,-55.6,0.94
-4.720e+00,-56,0.86
-4.712e+00,-55.6,0.86
-4.704e+00,-55.6,0.82
-4.696e+00,-55.6,0.74
-4.688e+00,-55.6,0.66
-4.680e+00,-55.6,0.58
-4.672e+00,-55.6,0.58
-4.664e+00,-55.6,0.54
-4.656e+00,-56,0.46
-4.648e+00,-56,0.5
-4.640e+00,-56,0.5
-4.632e+00,-55.6,0.58
-4.624e+00,-55.6,0.58
-4.616e+00,-55.6,0.66
-4.608e+00,-55.6,0.7
-4.600e+00,-55.6,0.74
-4.592e+00,-55.6,0.78
-4.584e+00,-55.6,0.78
-4.576e+00,-56,0.78
-4.568e+00,-55.6,0.78
-4.560e+00,-56,0.74
-4.552e+00,-56,0.7
-4.544e+00,-55.6,0.74
-4.536e+00,-55.6,0.7
-4.528e+00,-56,0.62
-4.520e+00,-55.6,0.66
-4.512e+00,-56,0.62
-4.504e+00,-56,0.62
-4.496e+00,-55.6,0.58
-4.488e+00,-55.6,0.58
-4.480e+00,-56,0.62
-4.472e+00,-56,0.66
-4.464e+00,-56,0.66
-4.456e+00,-56.4,0.66
-4.448e+00,-56,0.66
-4.440e+00,-56,0.7
-4.432e+00,-56,0.7
-4.424e+00,-55.6,0.74
-4.416e+00,-56,0.74
-4.408e+00,-56,0.82
-4.400e+00,-56,0.78
-4.392e+00,-56,0.82
-4.384e+00,-56,0.82
-4.376e+00,-56,0.78
-4.368e+00,-56,0.78
-4.360e+00,-56,0.7
-4.352e+00,-56,0.66
-4.344e+00,-56,0.62
-4.336e+00,-56,0.58
-4.328e+00,-56,0.5
-4.320e+00,-56,0.46
-4.312e+00,-56,0.5
-4.304e+00,-56.4,0.5
-4.296e+00,-56.4,0.54
-4.288e+00,-56.4,0.58
-4.280e+00,-56,0.62
-4.272e+00,-56,0.66
-4.264e+00,-56.4,0.7
-4.256e+00,-56.4,0.78
-4.248e+00,-56.4,0.82
-4.240e+00,-56,0.82
-4.232e+00,-56,0.9
-4.224e+00,-56,0.9
-4.216e+00,-56.4,0.9
-4.208e+00,-56,0.9
-4.200e+00,-56.4,0.9
-4.192e+00,-56.4,0.86
-4.184e+00,-56,0.82
-4.176e+00,-56.4,0.78
-4.168e+00,-56.4,0.78
-4.160e+00,-56,0.7
-4.152e+00,-56.4,0.7
-4.144e+00,-56.4,0.66
-4.136e+00,-56.4,0.7
-4.128e+00,-56.4,0.7
-4.120e+00,-56.8,0.7
-4.112e+00,-56.4,0.74
-4.104e+00,-56,0.74
-4.096e+00,-56.4,0.78
-4.088e+00,-56.4,0.78
-4.080e+00,-56.4,0.82
-4.072e+00,-56.4,0.82
-4.064e+00,-56.4,0.86
-4.056e+00,-56.8,0.9
-4.048e+00,-56.4,0.9
-4.040e+00,-56,0.9
-4.032e+00,-56.4,0.9
-4.024e+00,-56.4,0.86
-4.016e+00,-56.4,0.86
-4.008e+00,-56.8,0.82
-4.000e+00,-56.4,0.86
-3.992e+00,-56.4,0.82
-3.984e+00,-56.4,0.82
-3.976e+00,-56.4,0.78
-3.968e+00,-56.8,0.86
-3.960e+00,-56.8,0.9
-3.952e+00,-56.4,0.86
-3.944e+00,-56.4,0.94
-3.936e+00,-56.4,0.98
-3.928e+00,-56.4,1.02
-3.920e+00,-56.8,1.06
-3.912e+00,-56.4,1.1
-3.904e+00,-56.8,1.18
-3.896e+00,-56.4,1.18
-3.888e+00,-56.4,1.18
-3.880e+00,-56.8,1.18
-3.872e+00,-56.8,1.14
-3.864e+00,-56.4,1.1
-3.856e+00,-56.8,1.02
-3.848e+00,-56.8,0.9
-3.840e+00,-56.8,0.86
-3.832e+00,-56.4,0.82
-3.824e+00,-56.8,0.78
-3.816e+00,-56.8,0.74
-3.808e+00,-56.8,0.7
-3.800e+00,-56.8,0.78
-3.792e+00,-56.8,0.78
-3.784e+00,-56.8,0.82
-3.776e+00,-57.2,0.86
-3.768e+00,-56.8,0.94
-3.760e+00,-56.8,1.02
-3.752e+00,-56.8,1.06
-3.744e+00,-56.8,1.1
-3.736e+00,-56.8,1.22
-3.728e+00,-56.8,1.22
-3.720e+00,-56.8,1.26
-3.712e+00,-56.8,1.26
-3.704e+00,-56.8,1.22
-3.696e+00,-56.8,1.26
-3.688e+00,-56.8,1.22
-3.680e+00,-56.8,1.14
-3.672e+00,-56.8,1.06
-3.664e+00,-56.8,1.02
-3.656e+00,-56.8,0.94
-3.648e+00,-57.2,0.9
-3.640e+00,-56.8,0.86
-3.632e+00,-57.2,0.86
-3.624e+00,-56.8,0.86
-3.616e+00,-56.8,0.86
-3.608e+00,-57.2,0.86
-3.600e+00,-56.8,0.9
-3.592e+00,-56.8,0.9
-3.584e+00,-56.8,0.86
-3.576e+00,-56.8,0.9
-3.568e+00,-56.8,0.94
-3.560e+00,-57.2,0.94
-3.552e+00,-57.2,0.98
-3.544e+00,-56.8,0.94
-3.536e+00,-57.2,0.94
-3.528e+00,-56.8,0.94
-3.520e+00,-57.2,0.9
-3.512e+00,-56.8,0.86
-3.504e+00,-56.8,0.82
-3.496e+00,-56.8,0.82
-3.488e+00,-57.2,0.78
-3.480e+00,-56.8,0.78
-3.472e+00,-57.2,0.82
-3.464e+00,-57.2,0.82
-3.456e+00,-57.2,0.86
-3.448e+00,-57.2,0.86
-3.440e+00,-57.2,0.9
-3.432e+00,-57.2,0.94
-3.424e+00,-57.2,0.94
-3.416e+00,-57.2,1.02
-3.408e+00,-56.8,1.06
-3.400e+00,-57.2,1.1
-3.392e+00,-57.2,1.18
-3.384e+00,-57.2,1.18
-3.376e+00,-57.2,1.18
-3.368e+00,-57.2,1.26
-3.360e+00,-57.2,1.3
-3.352e+00,-57.6,1.34
-3.344e+00,-57.6,1.38
-3.336e+00,-57.2,1.34
-3.328e+00,-57.2,1.42
-3.320e+00,-57.2,1.46
-3.312e+00,-57.2,1.42
-3.304e+00,-57.2,1.42
-3.296e+00,-57.2,1.38
-3.288e+00,-57.2,1.38
-3.280e+00,-57.6,1.22
-3.272e+00,-57.2,1.22
-3.264e+00,-57.2,1.14
-3.256e+00,-57.2,1.1
-3.248e+00,-57.6,1.06
-3.240e+00,-57.2,0.98
-3.232e+00,-57.6,1.02
-3.224e+00,-57.6,1.02
-3.216e+00,-57.2,1.06
-3.208e+00,-57.2,1.06
-3.200e+00,-57.2,1.1
-3.192e+00,-57.6,1.22
-3.184e+00,-57.6,1.22
-3.176e+00,-57.6,1.3
-3.168e+00,-57.6,1.38
-3.160e+00,-57.2,1.42
-3.152e+00,-57.6,1.46
-3.144e+00,-57.2,1.5
-3.136e+00,-57.6,1.5
-3.128e+00,-57.6,1.46
-3.120e+00,-57.6,1.42
-3.112e+00,-57.2,1.38
-3.104e+00,-57.6,1.34
-3.096e+00,-57.2,1.26
-3.088e+00,-57.2,1.18
-3.080e+00,-57.6,1.14
-3.072e+00,-57.6,1.06
-3.064e+00,-57.6,1.02
-3.056e+00,-57.6,1.02
-3.048e+00,-57.6,0.98
-3.040e+00,-57.6,1.02
-3.032e+00,-57.6,1.06
-3.024e+00,-57.6,1.1
-3.016e+00,-57.2,1.22
-3.008e+00,-57.6,1.26
-3.000e+00,-57.6,1.34
-2.992e+00,-57.6,1.34
-2.984e+00,-57.6,1.42
-2.976e+00,-57.6,1.42
-2.968e+00,-57.6,1.34
-2.960e+00,-57.6,1.38
-2.952e+00,-57.6,1.34
-2.944e+00,-57.6,1.26
-2.936e+00,-57.6,1.22
-2.928e+00,-57.6,1.18
-2.920e+00,-57.6,1.18
-2.912e+00,-57.6,1.14
-2.904e+00,-57.2,1.14
-2.896e+00,-57.6,1.1
-2.888e+00,-57.6,1.14
-2.880e+00,-57.6,1.14
-2.872e+00,-57.6,1.14
-2.864e+00,-57.6,1.18
-2.856e+00,-57.6,1.26
-2.848e+00,-57.6,1.26
-2.840e+00,-57.6,1.3
-2.832e+00,-57.6,1.38
-2.824e+00,-57.6,1.42
-2.816e+00,-57.6,1.46
-2.808e+00,-58,1.42
-2.800e+00,-57.6,1.38
-2.792e+00,-58,1.34
-2.784e+00,-57.6,1.3
-2.776e+00,-57.6,1.26
-2.768e+00,-57.6,1.22
-2.760e+00,-57.6,1.22
-2.752e+00,-57.6,1.22
-2.744e+00,-58,1.26
-2.736e+00,-58,1.22
-2.728e+00,-58,1.3
-2.720e+00,-58,1.3
-2.712e+00,-58,1.38
-2.704e+00,-58,1.42
-2.696e+00,-58,1.46
-2.688e+00,-58,1.5
-2.680e+00,-58,1.58
-2.672e+00,-58,1.54
-2.664e+00,-57.6,1.54
-2.656e+00,-58,1.54
-2.648e+00,-58,1.5
-2.640e+00,-58.4,1.46
-2.632e+00,-58,1.34
-2.624e+00,-58,1.34
-2.616e+00,-58,1.3
-2.608e+00,-58.4,1.22
-2.600e+00,-58,1.22
-2.592e+00,-58,1.18
-2.584e+00,-58,1.18
-2.576e+00,-58,1.26
-2.568e+00,-58,1.22
-2.560e+00,-58,1.22
-2.552e+00,-58,1.26
-2.544e+00,-58.4,1.3
-2.536e+00,-58.4,1.34
-2.528e+00,-58,1.3
-2.520e+00,-58,1.34
-2.512e+00,-58,1.34
-2.504e+00,-58,1.3
-2.496e+00,-58.4,1.3
-2.488e+00,-58,1.3
-2.480e+00,-58,1.3
-2.472e+00,-58,1.3
-2.464e+00,-58,1.3
-2.456e+00,-58,1.26
-2.448e+00,-58,1.26
-2.440e+00,-58,1.26
-2.432e+00,-58,1.26
-2.424e+00,-58.4,1.26
-2.416e+00,-58.4,1.26
-2.408e+00,-58,1.34
-2.400e+00,-58,1.38
-2.392e+00,-58.4,1.42
-2.384e+00,-58,1.54
-2.376e+00,-58.4,1.62
-2.368e+00,-58,1.62
-2.360e+00,-58,1.7
-2.352e+00,-58,1.74
-2.344e+00,-58.4,1.7
-2.336e+00,-58.4,1.74
-2.328e+00,-58,1.66
-2.320e+00,-58.4,1.58
-2.312e+00,-58,1.5
-2.304e+00,-58.4,1.46
-2.296e+00,-58.4,1.34
-2.288e+00,-58.4,1.3
-2.280e+00,-58.8,1.26
-2.272e+00,-58,1.18
-2.264e+00,-58.4,1.14
-2.256e+00,-58.4,1.14
-2.248e+00,-58.4,1.14
-2.240e+00,-58.4,1.14
-2.232e+00,-58.4,1.14
-2.224e+00,-58.4,1.18
-2.216e+00,-58.4,1.22
-2.208e+00,-58.4,1.3
-2.200e+00,-58.4,1.34
-2.192e+00,-58.4,1.38
-2.184e+00,-58.4,1.42
-2.176e+00,-58.4,1.5
-2.168e+00,-58.4,1.5
-2.160e+00,-58.4,1.5
-2.152e+00,-58.4,1.5
-2.144e+00,-58.8,1.5
-2.136e+00,-58.4,1.46
-2.128e+00,-58.8,1.38
-2.120e+00,-58.4,1.3
-2.112e+00,-58.4,1.3
-2.104e+00,-58.8,1.26
-2.096e+00,-58.8,1.26
-2.088e+00,-58.8,1.22
-2.080e+00,-59.2,1.18
-2.072e+00,-58.8,1.26
-2.064e+00,-58.8,1.26
-2.056e+00,-58.8,1.26
-2.048e+00,-58.8,1.3
-2.040e+00,-58.8,1.38
-2.032e+00,-58.8,1.42
-2.024e+00,-58.8,1.46
-2.016e+00,-58.8,1.5
-2.008e+00,-58.8,1.5
-2.000e+00,-59.2,1.5
-1.992e+00,-58.8,1.5
-1.984e+00,-58.8,1.46
-1.976e+00,-59.2,1.42
-1.968e+00,-58.8,1.38
-1.960e+00,-58.8,1.38
-1.952e+00,-58.8,1.34
-1.944e+00,-58.8,1.26
-1.936e+00,-58.8,1.26
-1.928e+00,-58.8,1.18
-1.920e+00,-58.8,1.22
-1.912e+00,-58.8,1.22
-1.904e+00,-58.8,1.26
-1.896e+00,-59.2,1.3
-1.888e+00,-58.8,1.3
-1.880e+00,-59.2,1.34
-1.872e+00,-59.2,1.42
-1.864e+00,-58.8,1.46
-1.856e+00,-58.8,1.46
-1.848e+00,-59.2,1.46
-1.840e+00,-58.8,1.5
-1.832e+00,-58.8,1.58
-1.824e+00,-58.8,1.54
-1.816e+00,-59.2,1.54
-1.808e+00,-58.8,1.54
-1.800e+00,-58.8,1.54
-1.792e+00,-58.8,1.54
-1.784e+00,-58.8,1.54
-1.776e+00,-59.2,1.5
-1.768e+00,-59.2,1.46
-1.760e+00,-59.2,1.5
-1.752e+00,-59.2,1.42
-1.744e+00,-59.2,1.46
-1.736e+00,-59.2,1.5
-1.728e+00,-58.8,1.46
-1.720e+00,-59.2,1.46
-1.712e+00,-59.2,1.46
-1.704e+00,-59.2,1.5
-1.696e+00,-58.8,1.54
-1.688e+00,-59.2,1.54
-1.680e+00,-59.2,1.5
-1.672e+00,-59.2,1.5
-1.664e+00,-58.8,1.46
-1.656e+00,-59.2,1.42
-1.648e+00,-59.2,1.42
-1.640e+00,-58.8,1.38
-1.632e+00,-58.8,1.38
-1.624e+00,-59.2,1.42
-1.616e+00,-59.2,1.42
-1.608e+00,-59.2,1.46
-1.600e+00,-58.8,1.5
-1.592e+00,-59.2,1.54
-1.584e+00,-59.2,1.58
-1.576e+00,-59.2,1.58
-1.568e+00,-59.2,1.62
-1.560e+00,-59.2,1.62
-1.552e+00,-59.2,1.62
-1.544e+00,-59.2,1.58
-1.536e+00,-59.2,1.58
-1.528e+00,-59.2,1.58
-1.520e+00,-59.2,1.54
-1.512e+00,-59.2,1.54
-1.504e+00,-59.2,1.46
-1.496e+00,-59.6,1.46
-1.488e+00,-59.2,1.38
-1.480e+00,-59.2,1.34
-1.472e+00,-59.2,1.34
-1.464e+00,-59.2,1.34
-1.456e+00,-59.2,1.34
-1.448e+00,-59.2,1.34
-1.440e+00,-59.2,1.42
-1.432e+00,-59.6,1.42
-1.424e+00,-59.2,1.46
-1.416e+00,-59.6,1.5
-1.408e+00,-59.2,1.54
-1.400e+00,-59.6,1.58
-1.392e+00,-59.6,1.58
-1.384e+00,-59.2,1.62
-1.376e+00,-59.2,1.62
-1.368e+00,-59.2,1.62
-1.360e+00,-59.6,1.58
-1.352e+00,-59.6,1.54
-1.344e+00,-59.6,1.5
-1.336e+00,-59.6,1.5
-1.328e+00,-59.6,1.46
-1.320e+00,-59.6,1.42
-1.312e+00,-59.6,1.38
-1.304e+00,-59.6,1.34
-1.296e+00,-59.6,1.42
-1.288e+00,-59.6,1.42
-1.280e+00,-59.6,1.46
-1.272e+00,-59.6,1.54
-1.264e+00,-59.6,1.62
-1.256e+00,-59.6,1.7
-1.248e+00,-59.6,1.7
-1.240e+00,-59.6,1.74
-1.232e+00,-60,1.78
-1.224e+00,-60,1.74
-1.216e+00,-59.6,1.7
-1.208e+00,-59.6,1.66
-1.200e+00,-59.6,1.62
-1.192e+00,-59.6,1.54
-1.184e+00,-59.6,1.42
-1.176e+00,-59.6,1.34
-1.168e+00,-59.6,1.3
-1.160e+00,-60,1.22
-1.152e+00,-60,1.18
-1.144e+00,-59.6,1.18
-1.136e+00,-60,1.18
-1.128e+00,-60,1.22
-1.120e+00,-60,1.26
-1.112e+00,-59.6,1.3
-1.104e+00,-60,1.42
-1.096e+00,-60,1.5
-1.088e+00,-60,1.58
-1.080e+00,-60,1.7
-1.072e+00,-60,1.74
-1.064e+00,-59.6,1.86
-1.056e+00,-60,1.9
-1.048e+00,-60,1.9
-1.040e+00,-60,1.9
-1.032e+00,-60,1.94
-1.024e+00,-60,1.9
-1.016e+00,-60,1.82
-1.008e+00,-60,1.7
-1.000e+00,-60.4,1.66
-9.920e-01,-60,1.62
-9.840e-01,-60,1.54
-9.760e-01,-60,1.5
-9.680e-01,-60.4,1.5
-9.600e-01,-60,1.54
-9.520e-01,-60,1.54
-9.440e-01,-60,1.58
-9.360e-01,-60,1.62
-9.280e-01,-60.4,1.7
-9.200e-01,-60.4,1.82
-9.120e-01,-60.4,1.86
-9.040e-01,-60.4,1.86
-8.960e-01,-60.4,1.98
-8.880e-01,-60.4,1.94
-8.800e-01,-60,1.94
-8.720e-01,-60,1.82
-8.640e-01,-60,1.94
-8.560e-01,-60,1.9
-8.480e-01,-60.4,1.78
-8.400e-01,-60.4,1.74
-8.320e-01,-60.4,1.66
-8.240e-01,-60.4,1.62
-8.160e-01,-60.4,1.54
-8.080e-01,-60.8,1.54
-8.000e-01,-60,1.58
-7.920e-01,-60.4,1.66
-7.840e-01,-60.4,1.74
-7.760e-01,-60.4,1.78
-7.680e-01,-60.4,1.9
-7.600e-01,-60.4,2.02
-7.520e-01,-60.4,2.1
-7.440e-01,-60.4,2.22
-7.360e-01,-60.4,2.3
-7.280e-01,-60.4,2.34
-7.200e-01,-60,2.42
-7.120e-01,-60.4,2.34
-7.040e-01,-60.4,2.34
-6.960e-01,-60.4,2.3
-6.880e-01,-60.4,2.26
-6.800e-01,-60.4,2.18
-6.720e-01,-60.4,2.1
-6.640e-01,-60.4,2.02
-6.560e-01,-60.4,1.9
-6.480e-01,-60.4,1.78
