Massenspektrometer/TEK00036.CSV

Model,TBS2102B
Firmware Version,v1.32.139

Point Format,Y,
Horizontal Units,S,
Horizontal Scale,4,
Sample Interval,0.032,
Filter Frequency,2e+08,
Record Length,2000,
Gating,0.0% to 100.0%,0.0% to 100.0%
Probe Attenuation,1,1
Vertical Units,V,V
Vertical Offset,0,0
Vertical Scale,0.5,5
Label,,
TIME,CH1,CH2
-3.200e+01,0.02,8.1
-3.197e+01,0.02,8.3
-3.194e+01,0.04,8.3
-3.190e+01,0.02,8.1
-3.187e+01,0.02,8.3
-3.184e+01,0.04,8.1
-3.181e+01,0.02,8.1
-3.178e+01,0.04,8.1
-3.174e+01,0.04,8.3
-3.171e+01,0.04,8.3
-3.168e+01,0.02,8.3
-3.165e+01,0.04,8.3
-3.162e+01,0.04,8.3
-3.158e+01,0.04,8.3
-3.155e+01,0.04,8.3
-3.152e+01,0.04,8.3
-3.149e+01,0.04,8.5
-3.146e+01,0.04,8.5
-3.142e+01,0.04,8.3
-3.139e+01,0.04,8.5
-3.136e+01,0.04,8.3
-3.133e+01,0.04,8.3
-3.130e+01,0.04,8.3
-3.126e+01,0.06,8.3
-3.123e+01,0.04,8.3
-3.120e+01,0.04,8.3
-3.117e+01,0.06,8.3
-3.114e+01,0.04,8.3
-3.110e+01,0.04,8.3
-3.107e+01,0.04,8.3
-3.104e+01,0.04,8.3
-3.101e+01,0.04,8.3
-3.098e+01,0.04,8.3
-3.094e+01,0.04,8.5
-3.091e+01,0.04,8.5
-3.088e+01,0.04,8.5
-3.085e+01,0.04,8.3
-3.082e+01,0.04,8.5
-3.078e+01,0.04,8.5
-3.075e+01,0.04,8.5
-3.072e+01,0.04,8.3
-3.069e+01,0.04,8.5
-3.066e+01,0.04,8.5
-3.062e+01,0.04,8.5
-3.059e+01,0.04,8.3
-3.056e+01,0.04,8.5
-3.053e+01,0.02,8.5
-3.050e+01,0.06,8.5
-3.046e+01,0.04,8.7
-3.043e+01,0.04,8.5
-3.040e+01,0.04,8.5
-3.037e+01,0.04,8.5
-3.034e+01,0.04,8.5
-3.030e+01,0.04,8.5
-3.027e+01,0.04,8.7
-3.024e+01,0.04,8.7
-3.021e+01,0.04,8.5
-3.018e+01,0.04,8.5
-3.014e+01,0.06,8.5
-3.011e+01,0.04,8.5
-3.008e+01,0.04,8.5
-3.005e+01,0.06,8.5
-3.002e+01,0.04,8.5
-2.998e+01,0.04,8.5
-2.995e+01,0.04,8.7
-2.992e+01,0.04,8.7
-2.989e+01,0.04,8.5
-2.986e+01,0.02,8.5
-2.982e+01,0.02,8.5
-2.979e+01,0,8.7
-2.976e+01,0,8.5
-2.973e+01,0.02,8.7
-2.970e+01,0,8.5
-2.966e+01,0,8.7
-2.963e+01,0,8.7
-2.960e+01,0,8.7
-2.957e+01,0,8.7
-2.954e+01,0,8.7
-2.950e+01,0.02,8.7
-2.947e+01,0.02,8.7
-2.944e+01,0,8.7
-2.941e+01,0,8.7
-2.938e+01,0.02,8.7
-2.934e+01,0,8.7
-2.931e+01,0.02,8.7
-2.928e+01,0,8.7
-2.925e+01,0,8.7
-2.922e+01,0,8.7
-2.918e+01,0.02,8.9
-2.915e+01,0,8.9
-2.912e+01,0,8.9
-2.909e+01,0,8.7
-2.906e+01,0.02,8.9
-2.902e+01,0.02,8.7
-2.899e+01,0,8.7
-2.896e+01,0,8.7
-2.893e+01,0.02,8.7
-2.890e+01,0,8.7
-2.886e+01,0,8.9
-2.883e+01,0.02,8.9
-2.880e+01,0,8.9
-2.877e+01,0,8.7
-2.874e+01,0.02,8.9
-2.870e+01,0,8.9
-2.867e+01,0,8.9
-2.864e+01,0,8.9
-2.861e+01,0,8.7
-2.858e+01,0.02,8.9
-2.854e+01,0,8.9
-2.851e+01,0,9.1
-2.848e+01,0,8.9
-2.845e+01,0.02,8.9
-2.842e+01,0.02,8.9
-2.838e+01,0,8.9
-2.835e+01,0,8.9
-2.832e+01,0,8.9
-2.829e+01,0.02,8.9
-2.826e+01,0,9.1
-2.822e+01,0,8.9
-2.819e+01,0,8.9
-2.816e+01,0,8.9
-2.813e+01,0,9.1
-2.810e+01,0,8.9
-2.806e+01,0,9.1
-2.803e+01,0,9.1
-2.800e+01,0,8.9
-2.797e+01,0,8.9
-2.794e+01,0,8.9
-2.790e+01,0,8.9
-2.787e+01,0,9.1
-2.784e+01,0,8.9
-2.781e+01,0,9.1
-2.778e+01,0,9.1
-2.774e+01,0,9.1
-2.771e+01,0,9.1
-2.768e+01,0,9.1
-2.765e+01,0.02,8.9
-2.762e+01,0,9.1
-2.758e+01,0,9.1
-2.755e+01,0,9.1
-2.752e+01,0,9.1
-2.749e+01,0,9.1
-2.746e+01,0,9.1
-2.742e+01,0.02,9.1
-2.739e+01,0,9.1
-2.736e+01,0,9.3
-2.733e+01,0,9.1
-2.730e+01,0,9.1
-2.726e+01,0.02,9.1
-2.723e+01,0,9.1
-2.720e+01,0,9.3
-2.717e+01,0,9.1
-2.714e+01,0,9.3
-2.710e+01,0,9.1
-2.707e+01,0,9.1
-2.704e+01,0,9.3
-2.701e+01,0.02,9.1
-2.698e+01,0,9.1
-2.694e+01,0.02,9.1
-2.691e+01,0,9.1
-2.688e+01,0,9.1
-2.685e+01,0.02,9.1
-2.682e+01,0,9.3
-2.678e+01,0,9.3
-2.675e+01,0,9.3
-2.672e+01,0,9.3
-2.669e+01,0,9.3
-2.666e+01,0,9.3
-2.662e+01,0,9.3
-2.659e+01,0,9.3
-2.656e+01,0,9.3
-2.653e+01,0,9.3
-2.650e+01,0.02,9.3
-2.646e+01,0,9.3
-2.643e+01,0.02,9.3
-2.640e+01,0,9.3
-2.637e+01,0,9.3
-2.634e+01,0.02,9.3
-2.630e+01,0.02,9.3
-2.627e+01,0,9.3
-2.624e+01,0.02,9.3
-2.621e+01,0,9.3
-2.618e+01,0,9.3
-2.614e+01,0,9.3
-2.611e+01,0,9.3
-2.608e+01,0,9.3
-2.605e+01,0,9.5
-2.602e+01,0.02,9.3
-2.598e+01,0,9.5
-2.595e+01,0,9.3
-2.592e+01,0,9.3
-2.589e+01,0,9.3
-2.586e+01,0,9.3
-2.582e+01,0,9.3
-2.579e+01,0,9.3
-2.576e+01,0,9.5
-2.573e+01,0,9.5
-2.570e+01,0,9.5
-2.566e+01,0,9.5
-2.563e+01,0,9.5
-2.560e+01,0.02,9.3
-2.557e+01,0.02,9.5
-2.554e+01,0,9.5
-2.550e+01,0,9.3
-2.547e+01,0,9.5
-2.544e+01,0,9.5
-2.541e+01,0,9.5
-2.538e+01,0,9.7
-2.534e+01,0,9.5
-2.531e+01,0.02,9.5
-2.528e+01,0,9.5
-2.525e+01,0,9.7
-2.522e+01,0,9.5
-2.518e+01,0,9.5
-2.515e+01,0,9.5
-2.512e+01,0,9.5
-2.509e+01,0.02,9.5
-2.506e+01,0,9.5
-2.502e+01,0,9.5
-2.499e+01,0,9.5
-2.496e+01,0,9.5
-2.493e+01,0.02,9.5
-2.490e+01,0,9.7
-2.486e+01,0,9.5
-2.483e+01,0,9.5
-2.480e+01,0,9.7
-2.477e+01,0,9.7
-2.474e+01,0,9.7
-2.470e+01,0,9.7
-2.467e+01,0,9.7
-2.464e+01,0,9.7
-2.461e+01,0,9.7
-2.458e+01,0,9.7
-2.454e+01,0.02,9.7
-2.451e+01,0,9.7
-2.448e+01,0,9.7
-2.445e+01,0,9.7
-2.442e+01,0,9.7
-2.438e+01,0,9.7
-2.435e+01,0.02,9.7
-2.432e+01,0,9.7
-2.429e+01,0,9.7
-2.426e+01,0.02,9.9
-2.422e+01,0.02,9.7
-2.419e+01,0,9.9
-2.416e+01,0,9.7
-2.413e+01,0,9.7
-2.410e+01,0,9.9
-2.406e+01,0,9.7
-2.403e+01,0,9.7
-2.400e+01,0.02,9.9
-2.397e+01,0,9.7
-2.394e+01,0.02,9.9
-2.390e+01,0,9.7
-2.387e+01,0,9.7
-2.384e+01,0,9.9
-2.381e+01,0,9.7
-2.378e+01,0.02,9.9
-2.374e+01,0,9.7
-2.371e+01,0,9.9
-2.368e+01,0.02,9.9
-2.365e+01,0,9.9
-2.362e+01,0,9.9
-2.358e+01,0,9.9
-2.355e+01,0,9.9
-2.352e+01,0,9.9
-2.349e+01,0,9.9
-2.346e+01,0.02,9.9
-2.342e+01,-2.54,9.9
-2.339e+01,-2.54,9.5
-2.336e+01,-2.54,9.3
-2.333e+01,-2.54,8.9
-2.330e+01,-2.54,8.5
-2.326e+01,-2.54,8.1
-2.323e+01,-2.54,7.9
-2.320e+01,-2.54,7.3
-2.317e+01,-2.54,7.1
-2.314e+01,-2.54,6.7
-2.310e+01,-2.54,6.3
-2.307e+01,-2.54,5.9
-2.304e+01,-2.54,5.7
-2.301e+01,-2.54,5.3
-2.298e+01,-2.54,4.9
-2.294e+01,-2.54,4.7
-2.291e+01,-2.54,4.3
-2.288e+01,-2.54,3.9
-2.285e+01,-2.54,3.5
-2.282e+01,-2.54,3.3
-2.278e+01,-2.54,2.9
-2.275e+01,-2.54,2.7
-2.272e+01,-2.54,2.1
-2.269e+01,-2.54,1.7
-2.266e+01,-2.54,1.5
-2.262e+01,-2.54,1.1
-2.259e+01,-2.54,0.7
-2.256e+01,-2.54,0.3
-2.253e+01,-2.54,-0.1
-2.250e+01,0.02,-0.3
-2.246e+01,0.02,-0.1
-2.243e+01,0.04,-0.1
-2.240e+01,0.06,-0.3
-2.237e+01,0.04,-0.1
-2.234e+01,0.02,-0.1
-2.230e+01,0.04,-0.1
-2.227e+01,0.02,0.1
-2.224e+01,0.02,-0.1
-2.221e+01,0.02,0.1
-2.218e+01,0.04,-0.1
-2.214e+01,0.02,0.1
-2.211e+01,0.02,-0.1
-2.208e+01,0,-0.1
-2.205e+01,0.02,-0.1
-2.202e+01,0,0.1
-2.198e+01,0.02,-0.1
-2.195e+01,0.04,0.1
-2.192e+01,0.02,-0.1
-2.189e+01,0.04,-0.1
-2.186e+01,0.06,-0.1
-2.182e+01,0.06,-0.1
-2.179e+01,0.06,0.1
-2.176e+01,0.08,-0.1
-2.173e+01,0.08,-0.1
-2.170e+01,0.08,-0.1
-2.166e+01,0.08,0.1
-2.163e+01,0.08,0.1
-2.160e+01,0.08,0.1
-2.157e+01,0.06,0.1
-2.154e+01,0.06,0.1
-2.150e+01,0.04,-0.1
-2.147e+01,0.06,0.1
-2.144e+01,0.06,0.1
-2.141e+01,0.04,-0.1
-2.138e+01,0.02,0.1
-2.134e+01,0.02,0.1
-2.131e+01,0.02,0.1
-2.128e+01,0.02,0.1
-2.125e+01,0.04,0.3
-2.122e+01,0.02,0.1
-2.118e+01,0.02,0.1
-2.115e+01,-0.02,0.1
-2.112e+01,0,0.1
-2.109e+01,0.02,0.3
-2.106e+01,0.02,0.1
-2.102e+01,0.02,0.1
-2.099e+01,0.04,0.1
-2.096e+01,0.04,0.1
-2.093e+01,0.04,0.3
-2.090e+01,0.02,0.1
-2.086e+01,0,0.1
-2.083e+01,0,0.1
-2.080e+01,0.02,0.1
-2.077e+01,0.04,0.1
-2.074e+01,0.04,0.3
-2.070e+01,0.04,0.1
-2.067e+01,0.06,0.3
-2.064e+01,0.02,0.1
-2.061e+01,0.02,0.1
-2.058e+01,0.02,0.1
-2.054e+01,0.02,0.1
-2.051e+01,0.02,0.3
-2.048e+01,0,0.3
-2.045e+01,0,0.3
-2.042e+01,0.02,0.3
-2.038e+01,0.02,0.1
-2.035e+01,0.02,0.1
-2.032e+01,0.02,0.1
-2.029e+01,0.02,0.1
-2.026e+01,0.04,0.3
-2.022e+01,0.02,0.3
-2.019e+01,0.04,0.3
-2.016e+01,0.02,0.3
-2.013e+01,0.02,0.3
-2.010e+01,0.02,0.3
-2.006e+01,0.02,0.3
-2.003e+01,0.02,0.3
-2.000e+01,0.02,0.3
-1.997e+01,0.02,0.3
-1.994e+01,0.02,0.3
-1.990e+01,0.02,0.3
-1.987e+01,0.04,0.3
-1.984e+01,0.04,0.3
-1.981e+01,0.02,0.3
-1.978e+01,0.04,0.3
-1.974e+01,0.04,0.3
-1.971e+01,0.04,0.3
-1.968e+01,0.04,0.5
-1.965e+01,0.04,0.3
-1.962e+01,0.02,0.3
-1.958e+01,0.02,0.3
-1.955e+01,0.02,0.3
-1.952e+01,0.02,0.3
-1.949e+01,0,0.5
-1.946e+01,0,0.5
-1.942e+01,0,0.3
-1.939e+01,0.02,0.5
-1.936e+01,0.02,0.3
-1.933e+01,0.02,0.3
-1.930e+01,0.02,0.7
-1.926e+01,0,0.5
-1.923e+01,0,0.5
-1.920e+01,0,0.3
-1.917e+01,0.02,0.5
-1.914e+01,0.02,0.5
-1.910e+01,0.02,0.7
-1.907e+01,0.02,0.5
-1.904e+01,0,0.5
-1.901e+01,0.02,0.5
-1.898e+01,0,0.5
-1.894e+01,0.02,0.5
-1.891e+01,0.02,0.5
-1.888e+01,0.02,0.5
-1.885e+01,0.02,0.5
-1.882e+01,0.02,0.5
-1.878e+01,0,0.5
-1.875e+01,0,0.5
-1.872e+01,0.02,0.5
-1.869e+01,0,0.5
-1.866e+01,0,0.5
-1.862e+01,0,0.7
-1.859e+01,0,0.5
-1.856e+01,0,0.5
-1.853e+01,0.02,0.5
-1.850e+01,0.02,0.7
-1.846e+01,0.02,0.5
-1.843e+01,0.02,0.7
-1.840e+01,0.02,0.5
-1.837e+01,0.02,0.5
-1.834e+01,0,0.7
-1.830e+01,0.02,0.7
-1.827e+01,0.02,0.7
-1.824e+01,0,0.7
-1.821e+01,0.02,0.7
-1.818e+01,0.02,0.7
-1.814e+01,0.02,0.9
-1.811e+01,0,0.7
-1.808e+01,0.02,0.7
-1.805e+01,0.02,0.7
-1.802e+01,0.02,0.7
-1.798e+01,0.02,0.7
-1.795e+01,0.02,0.7
-1.792e+01,0,0.9
-1.789e+01,0,0.9
-1.786e+01,0,0.7
-1.782e+01,0,0.7
-1.779e+01,0,0.7
-1.776e+01,0.04,0.7
-1.773e+01,0.04,0.7
-1.770e+01,0.02,0.7
-1.766e+01,0.02,0.7
-1.763e+01,0.02,0.7
-1.760e+01,0,0.7
-1.757e+01,0.02,0.7
-1.754e+01,0.02,0.9
-1.750e+01,0.02,0.9
-1.747e+01,0.02,0.7
-1.744e+01,0.02,0.7
-1.741e+01,0.02,0.7
-1.738e+01,0.02,0.7
-1.734e+01,0,0.7
-1.731e+01,0,0.7
-1.728e+01,0,0.9
-1.725e+01,0,0.9
-1.722e+01,0.02,0.7
-1.718e+01,0,0.9
-1.715e+01,0.02,0.9
-1.712e+01,0,0.9
-1.709e+01,0,0.9
-1.706e+01,0.02,0.9
-1.702e+01,0.04,0.9
-1.699e+01,0.04,1.1
-1.696e+01,0.02,1.1
-1.693e+01,0,0.9
-1.690e+01,0,1.1
-1.686e+01,0,1.1
-1.683e+01,0.02,0.9
-1.680e+01,0.02,0.9
-1.677e+01,0.02,0.9
-1.674e+01,0.02,1.1
-1.670e+01,0,1.1
-1.667e+01,0,0.9
-1.664e+01,0,0.9
-1.661e+01,0.02,0.9
-1.658e+01,0,1.1
-1.654e+01,0,1.1
-1.651e+01,0.04,1.1
-1.648e+01,0.02,0.9
-1.645e+01,0,0.9
-1.642e+01,0.02,0.9
-1.638e+01,0,0.9
-1.635e+01,0,0.9
-1.632e+01,0,1.1
-1.629e+01,0.02,1.1
-1.626e+01,0,1.1
-1.622e+01,0,1.1
-1.619e+01,0,1.1
-1.616e+01,0,1.1
-1.613e+01,0,1.1
-1.610e+01,0,1.1
-1.606e+01,0,1.1
-1.603e+01,0,1.1
-1.600e+01,0.02,1.3
-1.597e+01,0.02,1.1
-1.594e+01,0,1.1
-1.590e+01,0,1.1
-1.587e+01,0,1.1
-1.584e+01,0,1.3
-1.581e+01,0,1.1
-1.578e+01,0,1.3
-1.574e+01,0.02,1.1
-1.571e+01,0,1.1
-1.568e+01,0,1.1
-1.565e+01,0,1.1
-1.562e+01,0,1.1
-1.558e+01,0,1.1
-1.555e+01,0.02,1.1
-1.552e+01,0.02,1.1
-1.549e+01,0.02,1.3
-1.546e+01,0.02,1.3
-1.542e+01,0,1.1
-1.539e+01,0,1.1
-1.536e+01,0,1.1
-1.533e+01,0.02,1.3
-1.530e+01,0.02,1.3
-1.526e+01,0,1.1
-1.523e+01,0,1.1
-1.520e+01,0,1.3
-1.517e+01,0,1.3
-1.514e+01,0.02,1.3
-1.510e+01,0.02,1.5
-1.507e+01,0,1.3
-1.504e+01,0,1.3
-1.501e+01,0,1.3
-1.498e+01,0.02,1.1
-1.494e+01,0.02,1.3
-1.491e+01,0.02,1.3
-1.488e+01,0,1.3
-1.485e+01,0,1.3
-1.482e+01,0.02,1.3
-1.478e+01,0.02,1.3
-1.475e+01,0.02,1.3
-1.472e+01,0.02,1.5
-1.469e+01,0,1.3
-1.466e+01,0,1.5
-1.462e+01,0,1.3
-1.459e+01,0.02,1.3
-1.456e+01,0.02,1.5
-1.453e+01,0.02,1.3
-1.450e+01,0,1.3
-1.446e+01,0,1.3
-1.443e+01,0,1.3
-1.440e+01,0.02,1.3
-1.437e+01,0.02,1.3
-1.434e+01,0,1.3
-1.430e+01,0.02,1.3
-1.427e+01,0,1.3
-1.424e+01,0.02,1.5
-1.421e+01,0,1.3
-1.418e+01,0.02,1.3
-1.414e+01,0.02,1.5
-1.411e+01,0.02,1.5
-1.408e+01,0.02,1.5
-1.405e+01,0.02,1.5
-1.402e+01,0,1.5
-1.398e+01,0.02,1.3
-1.395e+01,0.02,1.5
-1.392e+01,0,1.3
-1.389e+01,0,1.5
-1.386e+01,0,1.5
-1.382e+01,0,1.5
-1.379e+01,0.02,1.5
-1.376e+01,0.02,1.5
-1.373e+01,0.02,1.5
-1.370e+01,0,1.7
-1.366e+01,0,1.5
-1.363e+01,0,1.5
-1.360e+01,0.02,1.5
-1.357e+01,0.02,1.5
-1.354e+01,0,1.5
-1.350e+01,0,1.5
-1.347e+01,0.02,1.5
-1.344e+01,0.02,1.5
-1.341e+01,0,1.5
-1.338e+01,0,1.5
-1.334e+01,0,1.7
-1.331e+01,0.02,1.5
-1.328e+01,0.04,1.7
-1.325e+01,0.04,1.5
-1.322e+01,0.02,1.9
-1.318e+01,0.02,1.7
-1.315e+01,0.02,1.5
-1.312e+01,0,1.7
-1.309e+01,0,1.7
-1.306e+01,0.02,1.7
-1.302e+01,0,1.5
-1.299e+01,0,1.5
-1.296e+01,0,1.5
-1.293e+01,0,1.7
-1.290e+01,0.02,1.7
-1.286e+01,0,1.7
-1.283e+01,0,1.7
-1.280e+01,0,1.7
-1.277e+01,0,1.9
-1.274e+01,0.02,1.7
-1.270e+01,0,1.7
-1.267e+01,0.02,1.7
-1.264e+01,0.02,1.7
-1.261e+01,0.02,1.7
-1.258e+01,0,1.7
-1.254e+01,0.02,1.7
-1.251e+01,0,1.7
-1.248e+01,0,1.7
-1.245e+01,0.02,1.7
-1.242e+01,0.02,1.7
-1.238e+01,0,1.9
-1.235e+01,0,1.9
-1.232e+01,0.04,1.7
-1.229e+01,0.02,1.7
-1.226e+01,0.02,1.7
-1.222e+01,0,1.9
-1.219e+01,0.02,1.9
-1.216e+01,0.04,1.7
-1.213e+01,0.04,1.9
-1.210e+01,0.02,1.7
-1.206e+01,0.02,1.7
-1.203e+01,0.02,1.9
-1.200e+01,0.02,1.9
-1.197e+01,0,2.1
-1.194e+01,0,1.9
-1.190e+01,0,2.1
-1.187e+01,0.02,1.9
-1.184e+01,0.02,1.9
-1.181e+01,0,1.9
-1.178e+01,0,2.1
-1.174e+01,0,1.9
-1.171e+01,0,2.1
-1.168e+01,0.02,1.9
-1.165e+01,0.04,1.9
-1.162e+01,0.04,1.9
-1.158e+01,0.06,2.1
-1.155e+01,0.02,1.9
-1.152e+01,0.02,1.9
-1.149e+01,0,1.9
-1.146e+01,0,2.1
-1.142e+01,0.02,1.9
-1.139e+01,0.02,1.9
-1.136e+01,0.02,1.9
-1.133e+01,0.02,1.9
-1.130e+01,0,1.9
-1.126e+01,0,1.9
-1.123e+01,0.02,1.9
-1.120e+01,0.02,1.9
-1.117e+01,0.02,2.1
-1.114e+01,0.02,1.9
-1.110e+01,0.02,1.9
-1.107e+01,0.02,2.1
-1.104e+01,0.02,2.1
-1.101e+01,0,2.1
-1.098e+01,0,1.9
-1.094e+01,0.02,2.1
-1.091e+01,0.02,2.1
-1.088e+01,0.04,2.1
-1.085e+01,0.02,2.1
-1.082e+01,0.02,2.1
-1.078e+01,0.02,2.1
-1.075e+01,0.02,2.3
-1.072e+01,0.02,2.1
-1.069e+01,0.04,2.1
-1.066e+01,0,2.1
-1.062e+01,0,2.3
-1.059e+01,0.02,2.1
-1.056e+01,0,2.1
-1.053e+01,0,2.1
-1.050e+01,0.02,2.1
-1.046e+01,0.02,2.1
-1.043e+01,0,2.1
-1.040e+01,0.02,2.3
-1.037e+01,0,2.1
-1.034e+01,0,2.1
-1.030e+01,0,2.3
-1.027e+01,0,2.1
-1.024e+01,0.02,2.1
-1.021e+01,0,2.3
-1.018e+01,0,2.1
-1.014e+01,0,2.1
-1.011e+01,0.02,2.3
-1.008e+01,0,2.3
-1.005e+01,0,2.3
-1.002e+01,0.02,2.3
-9.984e+00,0,2.3
-9.952e+00,0,2.3
-9.920e+00,0,2.3
-9.888e+00,0,2.1
-9.856e+00,0,2.3
-9.824e+00,0.02,2.3
-9.792e+00,0.02,2.3
-9.760e+00,0.02,2.3
-9.728e+00,0.02,2.3
-9.696e+00,0.02,2.3
-9.664e+00,0.02,2.3
-9.632e+00,0,2.3
-9.600e+00,0.02,2.3
-9.568e+00,0,2.3
-9.536e+00,0,2.3
-9.504e+00,0.02,2.3
-9.472e+00,0.02,2.3
-9.440e+00,0.02,2.3
-9.408e+00,0.02,2.3
-9.376e+00,0.04,2.5
-9.344e+00,0.04,2.3
-9.312e+00,0.04,2.3
-9.280e+00,0.04,2.3
-9.248e+00,0.02,2.5
-9.216e+00,0.04,2.3
-9.184e+00,0.06,2.3
-9.152e+00,0.08,2.3
-9.120e+00,0.12,2.5
-9.088e+00,0.08,2.3
-9.056e+00,0.18,2.5
-9.024e+00,0.2,2.5
-8.992e+00,0.12,2.3
-8.960e+00,0.22,2.5
-8.928e+00,0.18,2.5
-8.896e+00,0.26,2.5
-8.864e+00,0.26,2.5
-8.832e+00,0.24,2.5
-8.800e+00,0.24,2.5
-8.768e+00,0.22,2.5
-8.736e+00,0.24,2.5
-8.704e+00,0.22,2.5
-8.672e+00,0.22,2.5
-8.640e+00,0.24,2.5
-8.608e+00,0.24,2.5
-8.576e+00,0.24,2.5
-8.544e+00,0.22,2.7
-8.512e+00,0.22,2.5
-8.480e+00,0.22,2.5
-8.448e+00,0.22,2.5
-8.416e+00,0.24,2.5
-8.384e+00,0.22,2.5
-8.352e+00,0.22,2.7
-8.320e+00,0.22,2.5
-8.288e+00,0.24,2.7
-8.256e+00,0.26,2.7
-8.224e+00,0.28,2.5
-8.192e+00,0.3,2.5
-8.160e+00,0.32,2.7
-8.128e+00,0.3,2.5
-8.096e+00,0.12,2.7
-8.064e+00,0.36,2.7
-8.032e+00,0.44,2.7
-8.000e+00,0.32,2.5
-7.968e+00,0.46,2.7
-7.936e+00,0.48,2.7
-7.904e+00,0.36,2.7
-7.872e+00,0.48,2.7
-7.840e+00,0.54,2.9
-7.808e+00,0.42,2.7
-7.776e+00,0.46,2.7
-7.744e+00,0.52,2.7
-7.712e+00,0.54,2.7
-7.680e+00,0.54,2.9
-7.648e+00,0.56,2.7
-7.616e+00,0.52,2.7
-7.584e+00,0.42,2.7
-7.552e+00,0.5,2.7
-7.520e+00,0.5,2.7
-7.488e+00,0.42,2.9
-7.456e+00,0.52,2.7
-7.424e+00,0.48,2.9
-7.392e+00,0.38,2.7
-7.360e+00,0.46,2.9
-7.328e+00,0.4,2.7
-7.296e+00,0.36,2.7
-7.264e+00,0.34,2.7
-7.232e+00,0.3,2.7
-7.200e+00,0.24,2.7
-7.168e+00,0.2,2.7
-7.136e+00,0.16,2.7
-7.104e+00,0.14,2.9
-7.072e+00,0.1,2.7
-7.040e+00,0.08,2.9
-7.008e+00,0.08,2.9
-6.976e+00,0.06,2.9
-6.944e+00,0.08,3.1
-6.912e+00,0.12,2.9
-6.880e+00,0.14,2.9
-6.848e+00,0.12,2.9
-6.816e+00,0.1,3.1
-6.784e+00,0.1,2.9
-6.752e+00,0.1,2.9
-6.720e+00,0.1,2.9
-6.688e+00,0.08,2.9
-6.656e+00,0.08,2.9
-6.624e+00,0.08,2.9
-6.592e+00,0.1,3.1
-6.560e+00,0.08,2.9
-6.528e+00,0.08,2.9
-6.496e+00,0.08,2.9
-6.464e+00,0.08,2.9
-6.432e+00,0.1,2.9
-6.400e+00,0.1,2.9
-6.368e+00,0.08,2.9
-6.336e+00,0.08,2.9
-6.304e+00,0.08,2.9
-6.272e+00,0.06,2.9
-6.240e+00,0.08,2.9
-6.208e+00,0.04,2.9
-6.176e+00,0.04,3.1
-6.144e+00,0.04,2.9
-6.112e+00,0.04,3.1
-6.080e+00,0.02,2.9
-6.048e+00,0,3.1
-6.016e+00,0,3.1
-5.984e+00,0.04,3.1
-5.952e+00,0.04,3.1
-5.920e+00,0.04,3.1
-5.888e+00,0.02,3.1
-5.856e+00,0.02,3.1
-5.824e+00,0.04,3.1
-5.792e+00,0,3.1
-5.760e+00,0.02,3.1
-5.728e+00,0.02,3.1
-5.696e+00,0.04,3.1
-5.664e+00,0.04,3.1
-5.632e+00,0,3.1
-5.600e+00,0.02,3.1
-5.568e+00,0.02,3.3
-5.536e+00,0.02,3.1
-5.504e+00,0,3.3
-5.472e+00,0.02,3.1
-5.440e+00,0.02,3.3
-5.408e+00,0,3.1
-5.376e+00,0.02,3.1
-5.344e+00,0,3.3
-5.312e+00,0,3.1
-5.280e+00,0,3.1
-5.248e+00,0.02,3.1
-5.216e+00,0,3.3
-5.184e+00,0,3.1
-5.152e+00,0.02,3.1
-5.120e+00,0,3.1
-5.088e+00,0,3.3
-5.056e+00,0,3.3
-5.024e+00,0,3.1
-4.992e+00,0.02,3.3
-4.960e+00,0.02,3.1
-4.928e+00,0,3.3
-4.896e+00,0,3.3
-4.864e+00,0,3.3
-4.832e+00,0,3.3
-4.800e+00,0,3.3
-4.768e+00,0,3.3
-4.736e+00,0,3.3
-4.704e+00,0,3.3
-4.672e+00,0,3.3
-4.640e+00,0,3.3
-4.608e+00,0.02,3.3
-4.576e+00,0,3.3
-4.544e+00,0,3.3
-4.512e+00,0.02,3.3
-4.480e+00,0.02,3.5
-4.448e+00,0,3.3
-4.416e+00,0.02,3.3
-4.384e+00,0.02,3.3
-4.352e+00,0.02,3.3
-4.320e+00,0,3.3
-4.288e+00,0,3.3
-4.256e+00,0,3.3
-4.224e+00,0.02,3.3
-4.192e+00,0.02,3.3
-4.160e+00,0,3.3
-4.128e+00,0,3.3
-4.096e+00,0,3.5
-4.064e+00,0,3.3
-4.032e+00,0,3.5
-4.000e+00,0,3.3
-3.968e+00,0.02,3.3
-3.936e+00,0.02,3.5
-3.904e+00,0.02,3.5
-3.872e+00,0,3.3
-3.840e+00,0,3.5
-3.808e+00,0,3.3
-3.776e+00,0,3.5
-3.744e+00,0,3.5
-3.712e+00,0,3.3
-3.680e+00,0,3.5
-3.648e+00,0,3.5
-3.616e+00,0.02,3.5
-3.584e+00,0,3.5
-3.552e+00,0,3.5
-3.520e+00,0,3.5
-3.488e+00,0,3.5
-3.456e+00,0,3.5
-3.424e+00,0,3.5
-3.392e+00,0,3.7
-3.360e+00,0,3.5
-3.328e+00,0,3.5
-3.296e+00,0,3.5
-3.264e+00,0,3.5
-3.232e+00,0.02,3.5
-3.200e+00,0.02,3.5
-3.168e+00,0,3.5
-3.136e+00,0,3.5
-3.104e+00,0,3.5
-3.072e+00,0,3.5
-3.040e+00,0,3.5
-3.008e+00,0,3.5
-2.976e+00,0,3.5
-2.944e+00,0.02,3.7
-2.912e+00,0,3.7
-2.880e+00,0,3.7
-2.848e+00,0,3.5
-2.816e+00,0.02,3.7
-2.784e+00,0,3.7
-2.752e+00,0.02,3.7
-2.720e+00,0,3.7
-2.688e+00,0,3.5
-2.656e+00,0,3.7
-2.624e+00,0,3.7
-2.592e+00,0,3.7
-2.560e+00,0.02,3.7
-2.528e+00,0,3.7
-2.496e+00,0,3.7
-2.464e+00,0,3.7
-2.432e+00,0,3.9
-2.400e+00,0,3.9
-2.368e+00,0,3.7
-2.336e+00,0,3.7
-2.304e+00,0,3.7
-2.272e+00,0,3.7
-2.240e+00,0,3.7
-2.208e+00,0,3.9
-2.176e+00,0,3.7
-2.144e+00,0.02,3.7
-2.112e+00,0,3.7
-2.080e+00,0,3.7
-2.048e+00,0,3.7
-2.016e+00,0.02,3.7
-1.984e+00,0,3.9
-1.952e+00,0,3.7
-1.920e+00,0,3.7
-1.888e+00,0,3.9
-1.856e+00,0,3.9
-1.824e+00,0,3.9
-1.792e+00,0,3.9
-1.760e+00,0,3.9
-1.728e+00,0.02,3.9
-1.696e+00,0,3.9
-1.664e+00,0,3.9
-1.632e+00,0,3.9
-1.600e+00,0.02,3.9
-1.568e+00,0,3.9
-1.536e+00,0,3.9
-1.504e+00,0,3.9
-1.472e+00,0,4.1
-1.440e+00,0,4.1
-1.408e+00,0,4.1
-1.376e+00,0.02,3.9
-1.344e+00,0,3.9
-1.312e+00,0,3.9
-1.280e+00,0,3.9
-1.248e+00,0,4.1
-1.216e+00,0,3.9
-1.184e+00,0,3.9
-1.152e+00,0,3.9
-1.120e+00,0,3.9
-1.088e+00,0,3.9
-1.056e+00,0,3.9
-1.024e+00,0.02,3.9
-9.920e-01,0,3.9
-9.600e-01,0,4.1
-9.280e-01,0,3.9
-8.960e-01,0,4.1
-8.640e-01,0,4.1
-8.320e-01,0.02,4.1
-8.000e-01,0,4.1
-7.680e-01,0.02,3.9
-7.360e-01,0.02,4.1
-7.040e-01,0,4.1
-6.720e-01,0,4.1
-6.400e-01,0,4.1
-6.080e-01,0,4.1
-5.760e-01,0.02,4.1
-5.440e-01,0,4.1
-5.120e-01,0,4.1
-4.800e-01,0,4.3
-4.480e-01,0,4.1
-4.160e-01,0,4.1
-3.840e-01,0,4.1
-3.520e-01,0,4.3
-3.200e-01,0,4.1
-2.880e-01,0,4.1
-2.560e-01,0,4.1
-2.240e-01,0,4.1
-1.920e-01,0,4.1
-1.600e-01,0,4.1
-1.280e-01,0,4.3
-9.600e-02,0,4.1
-6.400e-02,0,4.1
-3.200e-02,0.02,4.1
2.820e-14,0,4.3
3.200e-02,0.02,4.3
6.400e-02,0,4.1
9.600e-02,0,4.1
1.280e-01,0,4.1
1.600e-01,0,4.1
1.920e-01,0,4.1
2.240e-01,0,4.1
2.560e-01,0,4.3
2.880e-01,0,4.3
3.200e-01,0,4.1
3.520e-01,0,4.1
3.840e-01,0,4.1
4.160e-01,0,4.3
4.480e-01,0,4.3
4.800e-01,0,4.1
5.120e-01,0,4.3
5.440e-01,0.02,4.3
5.760e-01,0,4.1
6.080e-01,0,4.3
6.400e-01,0,4.3
6.720e-01,0,4.3
7.040e-01,0,4.3
7.360e-01,0,4.3
7.680e-01,0,4.3
8.000e-01,0,4.3
8.320e-01,0,4.3
8.640e-01,0.02,4.3
8.960e-01,0,4.3
9.280e-01,0,4.3
9.600e-01,0,4.3
9.920e-01,0,4.3
1.024e+00,0,4.3
1.056e+00,0,4.3
1.088e+00,0.02,4.3
1.120e+00,0,4.3
1.152e+00,0,4.3
1.184e+00,0,4.3
1.216e+00,0,4.5
1.248e+00,0.02,4.3
1.280e+00,0.02,4.5
1.312e+00,0,4.3
1.344e+00,0,4.3
1.376e+00,0,4.5
1.408e+00,0.02,4.5
1.440e+00,0,4.5
1.472e+00,0,4.5
1.504e+00,0,4.5
1.536e+00,0,4.5
1.568e+00,0,4.5
1.600e+00,0,4.3
1.632e+00,0,4.5
1.664e+00,0,4.5
1.696e+00,0.02,4.5
1.728e+00,0,4.7
1.760e+00,0,4.5
1.792e+00,0,4.7
1.824e+00,0,4.5
1.856e+00,0,4.5
1.888e+00,0,4.5
1.920e+00,0.02,4.7
